DATA/B-1/1kHz_100mV_10e-5_FFT.CSV

Model,DPO2024
Firmware Version,1.52

Point Format,Y
Horizontal Units,Hz
Horizontal Scale,260.4
Sample Interval,0.5208
Filter Frequency,2e+08
Record Length,5000
Gating,0.0% to 100.0%
Probe Attenuation,1
Vertical Units,NONE
Vertical Offset,0
Vertical Scale,20
Label,
TIME,MATH
0.0000e+00,-35.7812
5.2080e-01,-38.9125
1.0416e+00,-42.0406
1.5624e+00,-44.4813
2.0832e+00,-46.9219
2.6040e+00,-46.9219
3.1248e+00,-46.9219
3.6456e+00,-46.9219
4.1664e+00,-46.9219
4.6872e+00,-46.9219
5.2080e+00,-46.9219
5.7288e+00,-48.9969
6.2496e+00,-51.0719
6.7704e+00,-50.0531
7.2912e+00,-49.0312
7.8120e+00,-47.2719
8.3328e+00,-45.5094
8.8536e+00,-47.2719
9.3744e+00,-49.0312
9.8952e+00,-47.9781
1.0416e+01,-46.9219
1.0937e+01,-46.2156
1.1458e+01,-45.5094
1.1978e+01,-47.2719
1.2499e+01,-49.0312
1.3020e+01,-50.0531
1.3541e+01,-51.0719
1.4062e+01,-48.9969
1.4582e+01,-46.9219
1.5103e+01,-47.9781
1.5624e+01,-49.0312
1.6145e+01,-47.9781
1.6666e+01,-46.9219
1.7186e+01,-46.2156
1.7707e+01,-45.5094
1.8228e+01,-48.2906
1.8749e+01,-51.0719
1.9270e+01,-48.9969
1.9790e+01,-46.9219
2.0311e+01,-46.3406
2.0832e+01,-45.7563
2.1353e+01,-48.4156
2.1874e+01,-51.0719
2.2394e+01,-48.9969
2.2915e+01,-46.9219
2.3436e+01,-48.9969
2.3957e+01,-51.0719
2.4478e+01,-49.5656
2.4998e+01,-48.0594
2.5519e+01,-49.5656
2.6040e+01,-51.0719
2.6561e+01,-50.0531
2.7082e+01,-49.0312
2.7602e+01,-48.5469
2.8123e+01,-48.0594
2.8644e+01,-47.4906
2.9165e+01,-46.9219
2.9686e+01,-48.9969
3.0206e+01,-51.0719
3.0727e+01,-50.0531
3.1248e+01,-49.0312
3.1769e+01,-49.0312
3.2290e+01,-49.0312
3.2810e+01,-48.5469
3.3331e+01,-48.0594
3.3852e+01,-49.5656
3.4373e+01,-51.0719
3.4894e+01,-49.5656
3.5414e+01,-48.0594
3.5935e+01,-49.5656
3.6456e+01,-51.0719
3.6977e+01,-48.9969
3.7498e+01,-46.9219
3.8018e+01,-48.9969
3.8539e+01,-51.0719
3.9060e+01,-50.0531
3.9581e+01,-49.0312
4.0102e+01,-52.0406
4.0622e+01,-55.05
4.1143e+01,-50.9875
4.1664e+01,-46.9219
4.2185e+01,-47.9781
4.2706e+01,-49.0312
4.3226e+01,-52.0406
4.3747e+01,-55.05
4.4268e+01,-52.0406
4.4789e+01,-49.0312
4.5310e+01,-49.0312
4.5830e+01,-49.0312
4.6351e+01,-47.9781
4.6872e+01,-46.9219
4.7393e+01,-48.9969
4.7914e+01,-51.0719
4.8434e+01,-50.0531
4.8955e+01,-49.0312
4.9476e+01,-52.0406
4.9997e+01,-55.05
5.0518e+01,-52.0406
5.1038e+01,-49.0312
5.1559e+01,-52.0406
5.2080e+01,-55.05
5.2601e+01,-50.9875
5.3122e+01,-46.9219
5.3642e+01,-47.9781
5.4163e+01,-49.0312
5.4684e+01,-50.0531
5.5205e+01,-51.0719
5.5726e+01,-50.0531
5.6246e+01,-49.0312
5.6767e+01,-50.0531
5.7288e+01,-51.0719
5.7809e+01,-53.0625
5.8330e+01,-55.05
5.8850e+01,-52.0406
5.9371e+01,-49.0312
5.9892e+01,-49.0312
6.0413e+01,-49.0312
6.0934e+01,-49.0312
6.1454e+01,-49.0312
6.1975e+01,-49.0312
6.2496e+01,-49.0312
6.3017e+01,-49.0312
6.3538e+01,-49.0312
6.4058e+01,-50.0531
6.4579e+01,-51.0719
6.5100e+01,-51.0719
6.5621e+01,-51.0719
6.6142e+01,-51.0719
6.6662e+01,-51.0719
6.7183e+01,-51.0719
6.7704e+01,-51.0719
6.8225e+01,-50.0531
6.8746e+01,-49.0312
6.9266e+01,-50.0531
6.9787e+01,-51.0719
7.0308e+01,-51.0719
7.0829e+01,-51.0719
7.1350e+01,-51.0719
7.1870e+01,-51.0719
7.2391e+01,-51.5562
7.2912e+01,-52.0406
7.3433e+01,-53.5469
7.3954e+01,-55.05
7.4474e+01,-55.05
7.4995e+01,-55.05
7.5516e+01,-53.0625
7.6037e+01,-51.0719
7.6558e+01,-53.0625
7.7078e+01,-55.05
7.7599e+01,-56.5563
7.8120e+01,-58.0594
7.8641e+01,-53.5469
7.9162e+01,-49.0312
7.9682e+01,-52.0406
8.0203e+01,-55.05
8.0724e+01,-55.05
8.1245e+01,-55.05
8.1766e+01,-55.05
8.2286e+01,-55.05
8.2807e+01,-52.0406
8.3328e+01,-49.0312
8.3849e+01,-52.0406
8.4370e+01,-55.05
8.4890e+01,-55.05
8.5411e+01,-55.05
8.5932e+01,-53.0625
8.6453e+01,-51.0719
8.6974e+01,-53.0625
8.7494e+01,-55.05
8.8015e+01,-50.9875
8.8536e+01,-46.9219
8.9057e+01,-48.9969
8.9578e+01,-51.0719
9.0098e+01,-51.0719
9.0619e+01,-51.0719
9.1140e+01,-53.0625
9.1661e+01,-55.05
9.2182e+01,-55.05
9.2702e+01,-55.05
9.3223e+01,-56.5563
9.3744e+01,-58.0594
9.4265e+01,-53.0594
9.4786e+01,-48.0594
9.5306e+01,-53.0594
9.5827e+01,-58.0594
9.6348e+01,-53.5469
9.6869e+01,-49.0312
9.7390e+01,-52.0406
9.7910e+01,-55.05
9.8431e+01,-53.0625
9.8952e+01,-51.0719
9.9473e+01,-53.0625
9.9994e+01,-55.05
1.0051e+02,-53.0625
1.0104e+02,-51.0719
1.0156e+02,-51.0719
1.0208e+02,-51.0719
1.0260e+02,-53.0625
1.0312e+02,-55.05
1.0364e+02,-53.0625
1.0416e+02,-51.0719
1.0468e+02,-53.0625
1.0520e+02,-55.05
1.0572e+02,-53.0625
1.0624e+02,-51.0719
1.0676e+02,-49.5656
1.0728e+02,-48.0594
1.0781e+02,-51.5562
1.0833e+02,-55.05
1.0885e+02,-53.0625
1.0937e+02,-51.0719
1.0989e+02,-51.0719
1.1041e+02,-51.0719
1.1093e+02,-50.0531
1.1145e+02,-49.0312
1.1197e+02,-50.0531
1.1249e+02,-51.0719
1.1301e+02,-53.0625
1.1353e+02,-55.05
1.1406e+02,-53.0625
1.1458e+02,-51.0719
1.1510e+02,-51.0719
1.1562e+02,-51.0719
1.1614e+02,-51.0719
1.1666e+02,-51.0719
1.1718e+02,-53.0625
1.1770e+02,-55.05
1.1822e+02,-56.5563
1.1874e+02,-58.0594
1.1926e+02,-53.5469
1.1978e+02,-49.0312
1.2030e+02,-52.0406
1.2083e+02,-55.05
1.2135e+02,-55.05
1.2187e+02,-55.05
1.2239e+02,-55.05
1.2291e+02,-55.05
1.2343e+02,-51.5562
1.2395e+02,-48.0594
1.2447e+02,-49.5656
1.2499e+02,-51.0719
1.2551e+02,-53.0625
1.2603e+02,-55.05
1.2655e+02,-51.5562
1.2708e+02,-48.0594
1.2760e+02,-49.5656
1.2812e+02,-51.0719
1.2864e+02,-50.0531
1.2916e+02,-49.0312
1.2968e+02,-52.0406
1.3020e+02,-55.05
1.3072e+02,-52.0406
1.3124e+02,-49.0312
1.3176e+02,-53.5469
1.3228e+02,-58.0594
1.3280e+02,-53.5469
1.3332e+02,-49.0312
1.3385e+02,-50.0531
1.3437e+02,-51.0719
1.3489e+02,-53.0625
1.3541e+02,-55.05
1.3593e+02,-52.0406
1.3645e+02,-49.0312
1.3697e+02,-49.0312
1.3749e+02,-49.0312
1.3801e+02,-48.5469
1.3853e+02,-48.0594
1.3905e+02,-51.5562
1.3957e+02,-55.05
1.4010e+02,-52.0406
1.4062e+02,-49.0312
1.4114e+02,-50.0531
1.4166e+02,-51.0719
1.4218e+02,-49.5656
1.4270e+02,-48.0594
1.4322e+02,-49.5656
1.4374e+02,-51.0719
1.4426e+02,-51.0719
1.4478e+02,-51.0719
1.4530e+02,-50.0531
1.4582e+02,-49.0312
1.4634e+02,-52.0406
1.4687e+02,-55.05
1.4739e+02,-53.0625
1.4791e+02,-51.0719
1.4843e+02,-49.5656
1.4895e+02,-48.0594
1.4947e+02,-49.5656
1.4999e+02,-51.0719
1.5051e+02,-50.0531
1.5103e+02,-49.0312
1.5155e+02,-50.5375
1.5207e+02,-52.0406
1.5259e+02,-49.4813
1.5312e+02,-46.9219
1.5364e+02,-48.9969
1.5416e+02,-51.0719
1.5468e+02,-50.0531
1.5520e+02,-49.0312
1.5572e+02,-50.0531
1.5624e+02,-51.0719
1.5676e+02,-51.0719
1.5728e+02,-51.0719
1.5780e+02,-51.0719
1.5832e+02,-51.0719
1.5884e+02,-53.0625
1.5936e+02,-55.05
1.5989e+02,-52.0406
1.6041e+02,-49.0312
1.6093e+02,-50.0531
1.6145e+02,-51.0719
1.6197e+02,-51.0719
1.6249e+02,-51.0719
1.6301e+02,-50.0531
1.6353e+02,-49.0312
1.6405e+02,-50.0531
1.6457e+02,-51.0719
1.6509e+02,-51.0719
1.6561e+02,-51.0719
1.6614e+02,-51.0719
1.6666e+02,-51.0719
1.6718e+02,-51.0719
1.6770e+02,-51.0719
1.6822e+02,-51.0719
1.6874e+02,-51.0719
1.6926e+02,-53.0625
1.6978e+02,-55.05
1.7030e+02,-52.0406
1.7082e+02,-49.0312
1.7134e+02,-48.5469
1.7186e+02,-48.0594
1.7238e+02,-49.5656
1.7291e+02,-51.0719
1.7343e+02,-51.0719
1.7395e+02,-51.0719
1.7447e+02,-51.0719
1.7499e+02,-51.0719
1.7551e+02,-51.0719
1.7603e+02,-51.0719
1.7655e+02,-48.9969
1.7707e+02,-46.9219
1.7759e+02,-48.9969
1.7811e+02,-51.0719
1.7863e+02,-50.0531
1.7916e+02,-49.0312
1.7968e+02,-52.0406
1.8020e+02,-55.05
1.8072e+02,-53.0625
1.8124e+02,-51.0719
1.8176e+02,-53.0625
1.8228e+02,-55.05
1.8280e+02,-53.0625
1.8332e+02,-51.0719
1.8384e+02,-50.0531
1.8436e+02,-49.0312
1.8488e+02,-49.0312
1.8540e+02,-49.0312
1.8593e+02,-52.0406
1.8645e+02,-55.05
1.8697e+02,-52.0406
1.8749e+02,-49.0312
1.8801e+02,-52.0406
1.8853e+02,-55.05
1.8905e+02,-50.9875
1.8957e+02,-46.9219
1.9009e+02,-48.9969
1.9061e+02,-51.0719
1.9113e+02,-49.5656
1.9165e+02,-48.0594
1.9218e+02,-48.5469
1.9270e+02,-49.0312
1.9322e+02,-50.0531
1.9374e+02,-51.0719
1.9426e+02,-53.0625
1.9478e+02,-55.05
1.9530e+02,-53.0625
1.9582e+02,-51.0719
1.9634e+02,-48.9969
1.9686e+02,-46.9219
1.9738e+02,-52.4906
1.9790e+02,-58.0594
1.9842e+02,-52.4906
1.9895e+02,-46.9219
1.9947e+02,-52.4906
1.9999e+02,-58.0594
2.0051e+02,-53.0594
2.0103e+02,-48.0594
2.0155e+02,-49.5656
2.0207e+02,-51.0719
2.0259e+02,-50.0531
2.0311e+02,-49.0312
2.0363e+02,-49.0312
2.0415e+02,-49.0312
2.0467e+02,-52.0406
2.0520e+02,-55.05
2.0572e+02,-52.0406
2.0624e+02,-49.0312
2.0676e+02,-50.0531
2.0728e+02,-51.0719
2.0780e+02,-50.0531
2.0832e+02,-49.0312
2.0884e+02,-52.0406
2.0936e+02,-55.05
2.0988e+02,-53.0625
2.1040e+02,-51.0719
2.1092e+02,-51.0719
2.1144e+02,-51.0719
2.1197e+02,-50.0531
2.1249e+02,-49.0312
2.1301e+02,-50.0531
2.1353e+02,-51.0719
2.1405e+02,-50.0531
2.1457e+02,-49.0312
2.1509e+02,-50.0531
2.1561e+02,-51.0719
2.1613e+02,-53.0625
2.1665e+02,-55.05
2.1717e+02,-51.5562
2.1769e+02,-48.0594
2.1822e+02,-49.5656
2.1874e+02,-51.0719
2.1926e+02,-53.0625
2.1978e+02,-55.05
2.2030e+02,-53.0625
2.2082e+02,-51.0719
2.2134e+02,-53.0625
2.2186e+02,-55.05
2.2238e+02,-53.0625
2.2290e+02,-51.0719
2.2342e+02,-53.0625
2.2394e+02,-55.05
2.2446e+02,-53.0625
2.2499e+02,-51.0719
2.2551e+02,-53.0625
2.2603e+02,-55.05
2.2655e+02,-53.0625
2.2707e+02,-51.0719
2.2759e+02,-53.0625
2.2811e+02,-55.05
2.2863e+02,-55.05
2.2915e+02,-55.05
2.2967e+02,-52.0406
2.3019e+02,-49.0312
2.3071e+02,-52.0406
2.3124e+02,-55.05
2.3176e+02,-52.0406
2.3228e+02,-49.0312
2.3280e+02,-53.5469
2.3332e+02,-58.0594
2.3384e+02,-53.5469
2.3436e+02,-49.0312
2.3488e+02,-50.0531
2.3540e+02,-51.0719
2.3592e+02,-53.0625
2.3644e+02,-55.05
2.3696e+02,-53.0625
2.3748e+02,-51.0719
2.3801e+02,-51.0719
2.3853e+02,-51.0719
2.3905e+02,-53.0625
2.3957e+02,-55.05
2.4009e+02,-52.0406
2.4061e+02,-49.0312
2.4113e+02,-50.0531
2.4165e+02,-51.0719
2.4217e+02,-53.0625
2.4269e+02,-55.05
2.4321e+02,-55.05
2.4373e+02,-55.05
2.4426e+02,-55.05
2.4478e+02,-55.05
2.4530e+02,-52.0406
2.4582e+02,-49.0312
2.4634e+02,-52.0406
2.4686e+02,-55.05
2.4738e+02,-53.0625
2.4790e+02,-51.0719
2.4842e+02,-51.0719
2.4894e+02,-51.0719
2.4946e+02,-53.0625
2.4998e+02,-55.05
2.5050e+02,-52.0406
2.5103e+02,-49.0312
2.5155e+02,-52.0406
2.5207e+02,-55.05
2.5259e+02,-53.0625
2.5311e+02,-51.0719
2.5363e+02,-53.0625
2.5415e+02,-55.05
2.5467e+02,-53.0625
2.5519e+02,-51.0719
2.5571e+02,-51.0719
2.5623e+02,-51.0719
2.5675e+02,-50.0531
2.5728e+02,-49.0312
2.5780e+02,-52.0406
2.5832e+02,-55.05
2.5884e+02,-50.9875
2.5936e+02,-46.9219
2.5988e+02,-52.4906
2.6040e+02,-58.0594
2.6092e+02,-54.5656
2.6144e+02,-51.0719
2.6196e+02,-50.0531
2.6248e+02,-49.0312
2.6300e+02,-53.5469
2.6352e+02,-58.0594
2.6405e+02,-54.5656
2.6457e+02,-51.0719
2.6509e+02,-53.0625
2.6561e+02,-55.05
2.6613e+02,-53.0625
2.6665e+02,-51.0719
2.6717e+02,-53.0625
2.6769e+02,-55.05
2.6821e+02,-53.0625
2.6873e+02,-51.0719
2.6925e+02,-51.5562
2.6977e+02,-52.0406
2.7030e+02,-51.5562
2.7082e+02,-51.0719
2.7134e+02,-51.5562
2.7186e+02,-52.0406
2.7238e+02,-50.5375
2.7290e+02,-49.0312
2.7342e+02,-50.0531
2.7394e+02,-51.0719
2.7446e+02,-50.0531
2.7498e+02,-49.0312
2.7550e+02,-52.0406
2.7602e+02,-55.05
2.7654e+02,-52.0406
2.7707e+02,-49.0312
2.7759e+02,-50.0531
2.7811e+02,-51.0719
2.7863e+02,-51.0719
2.7915e+02,-51.0719
2.7967e+02,-51.0719
2.8019e+02,-51.0719
2.8071e+02,-51.5562
2.8123e+02,-52.0406
2.8175e+02,-51.5562
2.8227e+02,-51.0719
2.8279e+02,-51.0719
2.8332e+02,-51.0719
2.8384e+02,-53.0625
2.8436e+02,-55.05
2.8488e+02,-52.0406
2.8540e+02,-49.0312
2.8592e+02,-52.0406
2.8644e+02,-55.05
2.8696e+02,-53.0625
2.8748e+02,-51.0719
2.8800e+02,-50.0531
2.8852e+02,-49.0312
2.8904e+02,-50.0531
2.8956e+02,-51.0719
2.9009e+02,-53.0625
2.9061e+02,-55.05
2.9113e+02,-55.05
2.9165e+02,-55.05
2.9217e+02,-52.0406
2.9269e+02,-49.0312
2.9321e+02,-50.0531
2.9373e+02,-51.0719
2.9425e+02,-53.0625
2.9477e+02,-55.05
2.9529e+02,-53.0625
2.9581e+02,-51.0719
2.9634e+02,-53.0625
2.9686e+02,-55.05
2.9738e+02,-52.0406
2.9790e+02,-49.0312
2.9842e+02,-52.0406
2.9894e+02,-55.05
2.9946e+02,-53.0625
2.9998e+02,-51.0719
3.0050e+02,-49.5656
3.0102e+02,-48.0594
3.0154e+02,-49.5656
3.0206e+02,-51.0719
3.0258e+02,-50.0531
3.0311e+02,-49.0312
3.0363e+02,-49.0312
3.0415e+02,-49.0312
3.0467e+02,-52.0406
3.0519e+02,-55.05
3.0571e+02,-53.0625
3.0623e+02,-51.0719
3.0675e+02,-54.5656
3.0727e+02,-58.0594
3.0779e+02,-54.5656
3.0831e+02,-51.0719
3.0883e+02,-53.0625
3.0936e+02,-55.05
3.0988e+02,-53.0625
3.1040e+02,-51.0719
3.1092e+02,-53.0625
3.1144e+02,-55.05
3.1196e+02,-53.0625
3.1248e+02,-51.0719
3.1300e+02,-53.0625
3.1352e+02,-55.05
3.1404e+02,-53.0625
3.1456e+02,-51.0719
3.1508e+02,-50.0531
3.1560e+02,-49.0312
3.1613e+02,-52.0406
3.1665e+02,-55.05
3.1717e+02,-55.05
3.1769e+02,-55.05
3.1821e+02,-55.05
3.1873e+02,-55.05
3.1925e+02,-53.0625
3.1977e+02,-51.0719
3.2029e+02,-53.0625
3.2081e+02,-55.05
3.2133e+02,-53.0625
3.2185e+02,-51.0719
3.2238e+02,-54.5656
3.2290e+02,-58.0594
3.2342e+02,-53.5469
3.2394e+02,-49.0312
3.2446e+02,-52.0406
3.2498e+02,-55.05
3.2550e+02,-53.0625
3.2602e+02,-51.0719
3.2654e+02,-53.0625
3.2706e+02,-55.05
3.2758e+02,-53.0625
3.2810e+02,-51.0719
3.2862e+02,-53.0625
3.2915e+02,-55.05
3.2967e+02,-55.05
3.3019e+02,-55.05
3.3071e+02,-53.0625
3.3123e+02,-51.0719
3.3175e+02,-53.0625
3.3227e+02,-55.05
3.3279e+02,-53.5469
3.3331e+02,-52.0406
3.3383e+02,-50.5375
3.3435e+02,-49.0312
3.3487e+02,-52.0406
3.3540e+02,-55.05
3.3592e+02,-55.05
3.3644e+02,-55.05
3.3696e+02,-55.05
3.3748e+02,-55.05
3.3800e+02,-53.0625
3.3852e+02,-51.0719
3.3904e+02,-53.0625
3.3956e+02,-55.05
3.4008e+02,-53.0625
3.4060e+02,-51.0719
3.4112e+02,-51.0719
3.4164e+02,-51.0719
3.4217e+02,-53.0625
3.4269e+02,-55.05
3.4321e+02,-51.5562
3.4373e+02,-48.0594
3.4425e+02,-49.5656
3.4477e+02,-51.0719
3.4529e+02,-51.0719
3.4581e+02,-51.0719
3.4633e+02,-51.0719
3.4685e+02,-51.0719
3.4737e+02,-51.0719
3.4789e+02,-51.0719
3.4842e+02,-51.0719
3.4894e+02,-51.0719
3.4946e+02,-51.5562
3.4998e+02,-52.0406
3.5050e+02,-51.5562
3.5102e+02,-51.0719
3.5154e+02,-53.0625
3.5206e+02,-55.05
3.5258e+02,-55.05
3.5310e+02,-55.05
3.5362e+02,-53.0625
3.5414e+02,-51.0719
3.5466e+02,-51.0719
3.5519e+02,-51.0719
3.5571e+02,-51.5562
3.5623e+02,-52.0406
3.5675e+02,-51.5562
3.5727e+02,-51.0719
3.5779e+02,-51.0719
3.5831e+02,-51.0719
3.5883e+02,-51.0719
3.5935e+02,-51.0719
3.5987e+02,-54.5656
3.6039e+02,-58.0594
3.6091e+02,-53.5469
3.6144e+02,-49.0312
3.6196e+02,-53.5469
3.6248e+02,-58.0594
3.6300e+02,-56.5563
3.6352e+02,-55.05
3.6404e+02,-53.5469
3.6456e+02,-52.0406
3.6508e+02,-53.5469
3.6560e+02,-55.05
3.6612e+02,-55.05
3.6664e+02,-55.05
3.6716e+02,-55.05
3.6768e+02,-55.05
3.6821e+02,-53.0625
3.6873e+02,-51.0719
3.6925e+02,-51.0719
3.6977e+02,-51.0719
3.7029e+02,-53.0625
3.7081e+02,-55.05
3.7133e+02,-55.05
3.7185e+02,-55.05
3.7237e+02,-53.0625
3.7289e+02,-51.0719
3.7341e+02,-54.5656
3.7393e+02,-58.0594
3.7446e+02,-54.5656
3.7498e+02,-51.0719
3.7550e+02,-51.0719
3.7602e+02,-51.0719
3.7654e+02,-53.0625
3.7706e+02,-55.05
3.7758e+02,-55.05
3.7810e+02,-55.05
3.7862e+02,-53.0625
3.7914e+02,-51.0719
3.7966e+02,-53.0625
3.8018e+02,-55.05
3.8070e+02,-55.05
3.8123e+02,-55.05
3.8175e+02,-55.05
3.8227e+02,-55.05
3.8279e+02,-55.05
3.8331e+02,-55.05
3.8383e+02,-55.05
3.8435e+02,-55.05
3.8487e+02,-55.05
3.8539e+02,-55.05
3.8591e+02,-55.05
3.8643e+02,-55.05
3.8695e+02,-53.0625
3.8748e+02,-51.0719
3.8800e+02,-53.0625
3.8852e+02,-55.05
3.8904e+02,-55.05
3.8956e+02,-55.05
3.9008e+02,-53.0625
3.9060e+02,-51.0719
3.9112e+02,-53.0625
3.9164e+02,-55.05
3.9216e+02,-53.0625
3.9268e+02,-51.0719
3.9320e+02,-53.0625
3.9372e+02,-55.05
3.9425e+02,-55.05
3.9477e+02,-55.05
3.9529e+02,-55.05
3.9581e+02,-55.05
3.9633e+02,-53.0625
3.9685e+02,-51.0719
3.9737e+02,-53.0625
3.9789e+02,-55.05
3.9841e+02,-55.05
3.9893e+02,-55.05
3.9945e+02,-55.05
3.9997e+02,-55.05
4.0050e+02,-53.0625
4.0102e+02,-51.0719
4.0154e+02,-50.0531
4.0206e+02,-49.0312
4.0258e+02,-52.0406
4.0310e+02,-55.05
4.0362e+02,-55.05
4.0414e+02,-55.05
4.0466e+02,-53.0625
4.0518e+02,-51.0719
4.0570e+02,-51.0719
4.0622e+02,-51.0719
4.0674e+02,-51.0719
4.0727e+02,-51.0719
4.0779e+02,-51.0719
4.0831e+02,-51.0719
4.0883e+02,-51.0719
4.0935e+02,-51.0719
4.0987e+02,-51.0719
4.1039e+02,-51.0719
4.1091e+02,-53.0625
4.1143e+02,-55.05
4.1195e+02,-53.0625
4.1247e+02,-51.0719
4.1299e+02,-53.0625
4.1352e+02,-55.05
4.1404e+02,-55.05
4.1456e+02,-55.05
4.1508e+02,-53.0625
4.1560e+02,-51.0719
4.1612e+02,-51.0719
4.1664e+02,-51.0719
4.1716e+02,-53.0625
4.1768e+02,-55.05
4.1820e+02,-55.05
4.1872e+02,-55.05
4.1924e+02,-55.05
4.1976e+02,-55.05
4.2029e+02,-55.05
4.2081e+02,-55.05
4.2133e+02,-53.0625
4.2185e+02,-51.0719
4.2237e+02,-50.0531
4.2289e+02,-49.0312
4.2341e+02,-50.0531
4.2393e+02,-51.0719
4.2445e+02,-53.0625
4.2497e+02,-55.05
4.2549e+02,-56.5563
4.2601e+02,-58.0594
4.2654e+02,-54.5656
4.2706e+02,-51.0719
4.2758e+02,-53.0625
4.2810e+02,-55.05
4.2862e+02,-52.0406
4.2914e+02,-49.0312
4.2966e+02,-52.0406
4.3018e+02,-55.05
4.3070e+02,-53.0625
4.3122e+02,-51.0719
4.3174e+02,-51.5562
4.3226e+02,-52.0406
4.3278e+02,-55.05
4.3331e+02,-58.0594
4.3383e+02,-56.5563
4.3435e+02,-55.05
4.3487e+02,-55.05
4.3539e+02,-55.05
4.3591e+02,-53.0625
4.3643e+02,-51.0719
4.3695e+02,-53.0625
4.3747e+02,-55.05
4.3799e+02,-56.5563
4.3851e+02,-58.0594
4.3903e+02,-54.5656
4.3956e+02,-51.0719
4.4008e+02,-53.0625
4.4060e+02,-55.05
4.4112e+02,-53.0625
4.4164e+02,-51.0719
4.4216e+02,-54.5656
4.4268e+02,-58.0594
4.4320e+02,-58.0594
4.4372e+02,-58.0594
4.4424e+02,-54.5656
4.4476e+02,-51.0719
4.4528e+02,-51.0719
4.4580e+02,-51.0719
4.4633e+02,-53.0625
4.4685e+02,-55.05
4.4737e+02,-55.05
4.4789e+02,-55.05
4.4841e+02,-55.05
4.4893e+02,-55.05
4.4945e+02,-55.05
4.4997e+02,-55.05
4.5049e+02,-55.05
4.5101e+02,-55.05
4.5153e+02,-55.05
4.5205e+02,-55.05
4.5258e+02,-56.5563
4.5310e+02,-58.0594
4.5362e+02,-56.5563
4.5414e+02,-55.05
4.5466e+02,-55.05
4.5518e+02,-55.05
4.5570e+02,-55.05
4.5622e+02,-55.05
4.5674e+02,-56.5563
4.5726e+02,-58.0594
4.5778e+02,-53.5469
4.5830e+02,-49.0312
4.5882e+02,-53.5469
4.5935e+02,-58.0594
4.5987e+02,-55.05
4.6039e+02,-52.0406
4.6091e+02,-50.5375
4.6143e+02,-49.0312
4.6195e+02,-53.5469
4.6247e+02,-58.0594
4.6299e+02,-56.5563
4.6351e+02,-55.05
4.6403e+02,-53.5469
4.6455e+02,-52.0406
4.6507e+02,-51.5562
4.6560e+02,-51.0719
4.6612e+02,-54.5656
4.6664e+02,-58.0594
4.6716e+02,-54.5656
4.6768e+02,-51.0719
4.6820e+02,-51.5562
4.6872e+02,-52.0406
4.6924e+02,-55.05
4.6976e+02,-58.0594
4.7028e+02,-56.5563
4.7080e+02,-55.05
4.7132e+02,-55.05
4.7184e+02,-55.05
4.7237e+02,-56.5563
4.7289e+02,-58.0594
4.7341e+02,-54.5656
4.7393e+02,-51.0719
4.7445e+02,-53.0625
4.7497e+02,-55.05
4.7549e+02,-56.5563
4.7601e+02,-58.0594
4.7653e+02,-54.5656
4.7705e+02,-51.0719
4.7757e+02,-53.0625
4.7809e+02,-55.05
4.7862e+02,-55.05
4.7914e+02,-55.05
4.7966e+02,-55.05
4.8018e+02,-55.05
4.8070e+02,-55.05
4.8122e+02,-55.05
4.8174e+02,-55.05
4.8226e+02,-55.05
4.8278e+02,-53.5469
4.8330e+02,-52.0406
4.8382e+02,-55.05
4.8434e+02,-58.0594
4.8486e+02,-54.5656
4.8539e+02,-51.0719
4.8591e+02,-53.0625
4.8643e+02,-55.05
4.8695e+02,-53.0625
4.8747e+02,-51.0719
4.8799e+02,-51.5562
4.8851e+02,-52.0406
4.8903e+02,-53.5469
4.8955e+02,-55.05
4.9007e+02,-56.5563
4.9059e+02,-58.0594
4.9111e+02,-56.5563
4.9164e+02,-55.05
4.9216e+02,-55.05
4.9268e+02,-55.05
4.9320e+02,-55.05
4.9372e+02,-55.05
4.9424e+02,-53.5469
4.9476e+02,-52.0406
4.9528e+02,-53.5469
4.9580e+02,-55.05
4.9632e+02,-56.5563
4.9684e+02,-58.0594
4.9736e+02,-54.5656
4.9788e+02,-51.0719
4.9841e+02,-54.5656
4.9893e+02,-58.0594
4.9945e+02,-54.5656
4.9997e+02,-51.0719
5.0049e+02,-54.5656
5.0101e+02,-58.0594
5.0153e+02,-54.5656
5.0205e+02,-51.0719
5.0257e+02,-53.0625
5.0309e+02,-55.05
5.0361e+02,-55.05
5.0413e+02,-55.05
5.0466e+02,-55.05
5.0518e+02,-55.05
5.0570e+02,-52.0406
5.0622e+02,-49.0312
5.0674e+02,-53.5469
5.0726e+02,-58.0594
5.0778e+02,-58.0594
5.0830e+02,-58.0594
5.0882e+02,-56.5563
5.0934e+02,-55.05
5.0986e+02,-53.0625
5.1038e+02,-51.0719
5.1090e+02,-54.5656
5.1143e+02,-58.0594
5.1195e+02,-54.5656
5.1247e+02,-51.0719
5.1299e+02,-51.5562
5.1351e+02,-52.0406
5.1403e+02,-53.5469
5.1455e+02,-55.05
5.1507e+02,-55.05
5.1559e+02,-55.05
5.1611e+02,-55.05
5.1663e+02,-55.05
5.1715e+02,-53.0625
5.1768e+02,-51.0719
5.1820e+02,-54.5656
5.1872e+02,-58.0594
5.1924e+02,-56.5563
5.1976e+02,-55.05
5.2028e+02,-55.05
5.2080e+02,-55.05
5.2132e+02,-56.5563
5.2184e+02,-58.0594
5.2236e+02,-52.4906
5.2288e+02,-46.9219
5.2340e+02,-52.4906
5.2392e+02,-58.0594
5.2445e+02,-56.5563
