DATA/B-1/1kHz_100mV_10e-2_FFT.csv

Model,DPO2024
Firmware Version,1.52

Point Format,Y
Horizontal Units,Hz
Horizontal Scale,260.4
Sample Interval,0.5208
Filter Frequency,2e+08
Record Length,5000
Gating,0.0% to 100.0%
Probe Attenuation,1
Vertical Units,NONE
Vertical Offset,0
Vertical Scale,20
Label,
TIME,MATH
0.0000e+00,-29.4344
5.2080e-01,-31.675
1.0416e+00,-33.9125
1.5624e+00,-39.4813
2.0832e+00,-45.05
2.6040e+00,-40.7344
3.1248e+00,-36.4188
3.6456e+00,-40.25
4.1664e+00,-44.0812
4.6872e+00,-42.0063
5.2080e+00,-39.9312
5.7288e+00,-38.8094
6.2496e+00,-37.6875
6.7704e+00,-38.5594
7.2912e+00,-39.4281
7.8120e+00,-37.2719
8.3328e+00,-35.1156
8.8536e+00,-37.0187
9.3744e+00,-38.9219
9.8952e+00,-35.7094
1.0416e+01,-32.4969
1.0937e+01,-39.1281
1.1458e+01,-45.7563
1.1978e+01,-46.3406
1.2499e+01,-46.9219
1.3020e+01,-42.7437
1.3541e+01,-38.5656
1.4062e+01,-37.9906
1.4582e+01,-37.4156
1.5103e+01,-37.1688
1.5624e+01,-36.9219
1.6145e+01,-45.9875
1.6666e+01,-55.05
1.7186e+01,-47.2094
1.7707e+01,-39.3687
1.8228e+01,-40.0938
1.8749e+01,-40.8188
1.9270e+01,-40.625
1.9790e+01,-40.4281
2.0311e+01,-38.5781
2.0832e+01,-36.725
2.1353e+01,-40.8875
2.1874e+01,-45.05
2.2394e+01,-41.2156
2.2915e+01,-37.3781
2.3436e+01,-37.5938
2.3957e+01,-37.8094
2.4478e+01,-35.8625
2.4998e+01,-33.9125
2.5519e+01,-38.1469
2.6040e+01,-42.3781
2.6561e+01,-40.9031
2.7082e+01,-39.4281
2.7602e+01,-43.7437
2.8123e+01,-48.0594
2.8644e+01,-45.2781
2.9165e+01,-42.4969
2.9686e+01,-40.0156
3.0206e+01,-37.5312
3.0727e+01,-47.7969
3.1248e+01,-58.0594
3.1769e+01,-50.75
3.2290e+01,-43.4375
3.2810e+01,-42.4844
3.3331e+01,-41.5281
3.3852e+01,-43.2906
3.4373e+01,-45.05
3.4894e+01,-44.0312
3.5414e+01,-43.0094
3.5935e+01,-47.525
3.6456e+01,-52.0406
3.6977e+01,-46.2344
3.7498e+01,-40.4281
3.8018e+01,-40.625
3.8539e+01,-40.8188
3.9060e+01,-41.4312
3.9581e+01,-42.0406
4.0102e+01,-40.7062
4.0622e+01,-39.3687
4.1143e+01,-45.2219
4.1664e+01,-51.0719
4.2185e+01,-45.9469
4.2706e+01,-40.8188
4.3226e+01,-43.1656
4.3747e+01,-45.5094
4.4268e+01,-43.2062
4.4789e+01,-40.9
4.5310e+01,-43.4594
4.5830e+01,-46.0187
4.6351e+01,-45.5344
4.6872e+01,-45.05
4.7393e+01,-41.0719
4.7914e+01,-37.0906
4.8434e+01,-46.0719
4.8955e+01,-55.05
4.9476e+01,-53.0625
4.9997e+01,-51.0719
5.0518e+01,-46.1156
5.1038e+01,-41.1594
5.1559e+01,-38.4594
5.2080e+01,-35.7563
5.2601e+01,-43.9
5.3122e+01,-52.0406
5.3642e+01,-51.5562
5.4163e+01,-51.0719
5.4684e+01,-45.4031
5.5205e+01,-39.7344
5.5726e+01,-41.0562
5.6246e+01,-42.3781
5.6767e+01,-42.5625
5.7288e+01,-42.7469
5.7809e+01,-39.1531
5.8330e+01,-35.5562
5.8850e+01,-37.2406
5.9371e+01,-38.9219
5.9892e+01,-38.0781
6.0413e+01,-37.2344
6.0934e+01,-37.4625
6.1454e+01,-37.6875
6.1975e+01,-40.0344
6.2496e+01,-42.3781
6.3017e+01,-43.1469
6.3538e+01,-43.9125
6.4058e+01,-42.0594
6.4579e+01,-40.2062
6.5100e+01,-40.0688
6.5621e+01,-39.9312
6.6142e+01,-39.8344
6.6662e+01,-39.7344
6.7183e+01,-47.3937
6.7704e+01,-55.05
6.8225e+01,-48.4937
6.8746e+01,-41.9344
6.9266e+01,-42.6875
6.9787e+01,-43.4375
7.0308e+01,-44.5969
7.0829e+01,-45.7563
7.1350e+01,-46.3406
7.1870e+01,-46.9219
7.2391e+01,-41.6719
7.2912e+01,-36.4188
7.3433e+01,-39.5844
7.3954e+01,-42.7469
7.4474e+01,-45.4031
7.4995e+01,-48.0594
7.5516e+01,-43.0594
7.6037e+01,-38.0594
7.6558e+01,-44.5656
7.7078e+01,-51.0719
7.7599e+01,-46.725
7.8120e+01,-42.3781
7.8641e+01,-45.2188
7.9162e+01,-48.0594
7.9682e+01,-46.9094
8.0203e+01,-45.7563
8.0724e+01,-46.9094
8.1245e+01,-48.0594
8.1766e+01,-43.4125
8.2286e+01,-38.7656
8.2807e+01,-41.1031
8.3328e+01,-43.4375
8.3849e+01,-41.1031
8.4370e+01,-38.7656
8.4890e+01,-45.4031
8.5411e+01,-52.0406
8.5932e+01,-45.4031
8.6453e+01,-38.7656
8.6974e+01,-41.425
8.7494e+01,-44.0812
8.8015e+01,-41.1375
8.8536e+01,-38.1938
8.9057e+01,-41.6219
8.9578e+01,-45.05
9.0098e+01,-45.05
9.0619e+01,-45.05
9.1140e+01,-39.9656
9.1661e+01,-34.8813
9.2182e+01,-40.9031
9.2702e+01,-46.9219
9.3223e+01,-44.7094
9.3744e+01,-42.4969
9.4265e+01,-40.7656
9.4786e+01,-39.0312
9.5306e+01,-37.3937
9.5827e+01,-35.7563
9.6348e+01,-43.9
9.6869e+01,-52.0406
9.7390e+01,-48.9
9.7910e+01,-45.7563
9.8431e+01,-41.7844
9.8952e+01,-37.8094
9.9473e+01,-39.4406
9.9994e+01,-41.0719
1.0051e+02,-40.2812
1.0104e+02,-39.4875
1.0156e+02,-38.0906
1.0208e+02,-36.6938
1.0260e+02,-37.8344
1.0312e+02,-38.975
1.0364e+02,-41.5281
1.0416e+02,-44.0812
1.0468e+02,-41.9094
1.0520e+02,-39.7344
1.0572e+02,-40.6313
1.0624e+02,-41.5281
1.0676e+02,-49.7938
1.0728e+02,-58.0594
1.0781e+02,-48.0594
1.0833e+02,-38.0594
1.0885e+02,-43.2906
1.0937e+02,-48.5187
1.0989e+02,-47.7219
1.1041e+02,-46.9219
1.1093e+02,-45.1812
1.1145e+02,-43.4375
1.1197e+02,-50.75
1.1249e+02,-58.0594
1.1301e+02,-47.4906
1.1353e+02,-36.9219
1.1406e+02,-39.225
1.1458e+02,-41.5281
1.1510e+02,-41.7844
1.1562e+02,-42.0406
1.1614e+02,-50.05
1.1666e+02,-58.0594
1.1718e+02,-50.05
1.1770e+02,-42.0406
1.1822e+02,-42.9781
1.1874e+02,-43.9125
1.1926e+02,-47.4937
1.1978e+02,-51.0719
1.2030e+02,-46.1156
1.2083e+02,-41.1594
1.2135e+02,-40.0969
1.2187e+02,-39.0312
1.2239e+02,-41.5562
1.2291e+02,-44.0812
1.2343e+02,-42.0063
1.2395e+02,-39.9312
1.2447e+02,-44.4813
1.2499e+02,-49.0312
1.2551e+02,-47.9781
1.2603e+02,-46.9219
1.2655e+02,-43.4281
1.2708e+02,-39.9312
1.2760e+02,-41.9219
1.2812e+02,-43.9125
1.2864e+02,-47.4937
1.2916e+02,-51.0719
1.2968e+02,-42.7219
1.3020e+02,-34.3687
1.3072e+02,-37.15
1.3124e+02,-39.9312
1.3176e+02,-39.225
1.3228e+02,-38.5187
1.3280e+02,-43.5187
1.3332e+02,-48.5187
1.3385e+02,-43.775
1.3437e+02,-39.0312
1.3489e+02,-39.4813
1.3541e+02,-39.9312
1.3593e+02,-39.7094
1.3645e+02,-39.4875
1.3697e+02,-40.7125
1.3749e+02,-41.9344
1.3801e+02,-41.1812
1.3853e+02,-40.4281
1.3905e+02,-44.475
1.3957e+02,-48.5187
1.4010e+02,-45.025
1.4062e+02,-41.5281
1.4114e+02,-46.3
1.4166e+02,-51.0719
1.4218e+02,-47.0406
1.4270e+02,-43.0094
1.4322e+02,-44.3844
1.4374e+02,-45.7563
1.4426e+02,-43.0938
1.4478e+02,-40.4281
1.4530e+02,-45.75
1.4582e+02,-51.0719
1.4634e+02,-44.7969
1.4687e+02,-38.5187
1.4739e+02,-46.7844
1.4791e+02,-55.05
1.4843e+02,-56.5563
1.4895e+02,-58.0594
1.4947e+02,-47.4906
1.4999e+02,-36.9219
1.5051e+02,-47.4906
1.5103e+02,-58.0594
1.5155e+02,-53.5469
1.5207e+02,-49.0312
1.5259e+02,-45.2812
1.5312e+02,-41.5281
1.5364e+02,-42.8062
1.5416e+02,-44.0812
1.5468e+02,-47.5781
1.5520e+02,-51.0719
1.5572e+02,-49.5656
1.5624e+02,-48.0594
1.5676e+02,-43.9969
1.5728e+02,-39.9312
1.5780e+02,-45.5031
1.5832e+02,-51.0719
1.5884e+02,-46.3
1.5936e+02,-41.5281
1.5989e+02,-48.2906
1.6041e+02,-55.05
1.6093e+02,-46.2156
1.6145e+02,-37.3781
1.6197e+02,-37.3969
1.6249e+02,-37.4156
1.6301e+02,-36.3125
1.6353e+02,-35.2062
1.6405e+02,-46.6344
1.6457e+02,-58.0594
1.6509e+02,-48.9969
1.6561e+02,-39.9312
1.6614e+02,-42.975
1.6666e+02,-46.0187
1.6718e+02,-49.0312
1.6770e+02,-52.0406
1.6822e+02,-45.4031
1.6874e+02,-38.7656
1.6926e+02,-44.9188
1.6978e+02,-51.0719
1.7030e+02,-51.0719
1.7082e+02,-51.0719
1.7134e+02,-47.2563
1.7186e+02,-43.4375
1.7238e+02,-45.1812
1.7291e+02,-46.9219
1.7343e+02,-47.4906
1.7395e+02,-48.0594
1.7447e+02,-46.0719
1.7499e+02,-44.0812
1.7551e+02,-42.4906
1.7603e+02,-40.9
1.7655e+02,-39.5469
1.7707e+02,-38.1938
1.7759e+02,-38.3813
1.7811e+02,-38.5656
1.7863e+02,-40.3031
1.7916e+02,-42.0406
1.7968e+02,-50.05
1.8020e+02,-58.0594
1.8072e+02,-51.0719
1.8124e+02,-44.0812
1.8176e+02,-46.5562
1.8228e+02,-49.0312
1.8280e+02,-48.775
1.8332e+02,-48.5187
1.8384e+02,-46.2156
1.8436e+02,-43.9125
1.8488e+02,-40.5562
1.8540e+02,-37.1969
1.8593e+02,-37.8594
1.8645e+02,-38.5187
1.8697e+02,-48.2906
1.8749e+02,-58.0594
1.8801e+02,-48.9969
1.8853e+02,-39.9312
1.8905e+02,-43.9969
1.8957e+02,-48.0594
1.9009e+02,-43.5187
1.9061e+02,-38.975
1.9113e+02,-42.3656
1.9165e+02,-45.7563
1.9218e+02,-45.6344
1.9270e+02,-45.5094
1.9322e+02,-46.7844
1.9374e+02,-48.0594
1.9426e+02,-50.05
1.9478e+02,-52.0406
1.9530e+02,-45.9875
1.9582e+02,-39.9312
1.9634e+02,-45.5031
1.9686e+02,-51.0719
1.9738e+02,-46.725
1.9790e+02,-42.3781
1.9842e+02,-39.0312
1.9895e+02,-35.6812
1.9947e+02,-36.6844
1.9999e+02,-37.6875
2.0051e+02,-43.1031
2.0103e+02,-48.5187
2.0155e+02,-42.95
2.0207e+02,-37.3781
2.0259e+02,-42.95
2.0311e+02,-48.5187
2.0363e+02,-44.475
2.0415e+02,-40.4281
2.0467e+02,-41.9344
2.0520e+02,-43.4375
2.0572e+02,-40.75
2.0624e+02,-38.0594
2.0676e+02,-44.5656
2.0728e+02,-51.0719
2.0780e+02,-46.3
2.0832e+02,-41.5281
2.0884e+02,-43.775
2.0936e+02,-46.0187
2.0988e+02,-42.525
2.1040e+02,-39.0312
2.1092e+02,-41.4719
2.1144e+02,-43.9125
2.1197e+02,-39.9656
2.1249e+02,-36.0187
2.1301e+02,-44.0312
2.1353e+02,-52.0406
2.1405e+02,-47.9781
2.1457e+02,-43.9125
2.1509e+02,-43.4625
2.1561e+02,-43.0094
2.1613e+02,-41.9562
2.1665e+02,-40.9
2.1717e+02,-39.5469
2.1769e+02,-38.1938
2.1822e+02,-36.6906
2.1874e+02,-35.1844
2.1926e+02,-34.7875
2.1978e+02,-34.3875
2.2030e+02,-38.2156
2.2082e+02,-42.0406
2.2134e+02,-44.4813
2.2186e+02,-46.9219
2.2238e+02,-46.9219
2.2290e+02,-46.9219
2.2342e+02,-42.8438
2.2394e+02,-38.7656
2.2446e+02,-42.8438
2.2499e+02,-46.9219
2.2551e+02,-41.9562
2.2603e+02,-36.9875
2.2655e+02,-38.4937
2.2707e+02,-40
2.2759e+02,-40.5375
2.2811e+02,-41.0719
2.2863e+02,-39.9188
2.2915e+02,-38.7656
2.2967e+02,-40.7563
2.3019e+02,-42.7469
2.3071e+02,-41.9094
2.3124e+02,-41.0719
2.3176e+02,-40.6406
2.3228e+02,-40.2062
2.3280e+02,-41.3531
2.3332e+02,-42.4969
2.3384e+02,-39.4719
2.3436e+02,-36.4469
2.3488e+02,-38.9875
2.3540e+02,-41.5281
2.3592e+02,-39.4531
2.3644e+02,-37.3781
2.3696e+02,-36.1625
2.3748e+02,-34.9438
2.3801e+02,-37.9219
2.3853e+02,-40.9
2.3905e+02,-41.9562
2.3957e+02,-43.0094
2.4009e+02,-42.4719
2.4061e+02,-41.9344
2.4113e+02,-39.5656
2.4165e+02,-37.1969
2.4217e+02,-42.0594
2.4269e+02,-46.9219
2.4321e+02,-47.4906
2.4373e+02,-48.0594
2.4426e+02,-44.1344
2.4478e+02,-40.2062
2.4530e+02,-38.9469
2.4582e+02,-37.6875
2.4634e+02,-39.8125
2.4686e+02,-41.9344
2.4738e+02,-43.8469
2.4790e+02,-45.7563
2.4842e+02,-41.5688
2.4894e+02,-37.3781
2.4946e+02,-43.2062
2.4998e+02,-49.0312
2.5050e+02,-47.0406
2.5103e+02,-45.05
2.5155e+02,-44.5656
2.5207e+02,-44.0812
2.5259e+02,-39.9312
2.5311e+02,-35.7812
2.5363e+02,-37.175
2.5415e+02,-38.5656
2.5467e+02,-42.2938
2.5519e+02,-46.0187
2.5571e+02,-43.4188
2.5623e+02,-40.8188
2.5675e+02,-46.4312
2.5728e+02,-52.0406
2.5780e+02,-46.0219
2.5832e+02,-40
2.5884e+02,-40.9688
2.5936e+02,-41.9344
2.5988e+02,-39.9969
2.6040e+02,-38.0594
2.6092e+02,-40.05
2.6144e+02,-42.0406
2.6196e+02,-42.7406
2.6248e+02,-43.4375
2.6300e+02,-41.1812
2.6352e+02,-38.9219
2.6405e+02,-39.3281
2.6457e+02,-39.7344
2.6509e+02,-45.8875
2.6561e+02,-52.0406
2.6613e+02,-49.0312
2.6665e+02,-46.0187
2.6717e+02,-47.525
2.6769e+02,-49.0312
2.6821e+02,-41.0219
2.6873e+02,-33.0094
2.6925e+02,-33.5469
2.6977e+02,-34.0812
2.7030e+02,-41.3
2.7082e+02,-48.5187
2.7134e+02,-49.7969
2.7186e+02,-51.0719
2.7238e+02,-46.9094
2.7290e+02,-42.7469
2.7342e+02,-44.1281
2.7394e+02,-45.5094
2.7446e+02,-42.4406
2.7498e+02,-39.3687
2.7550e+02,-38.2313
2.7602e+02,-37.0906
2.7654e+02,-38.5125
2.7707e+02,-39.9312
2.7759e+02,-38.9969
2.7811e+02,-38.0594
2.7863e+02,-38.5469
2.7915e+02,-39.0312
2.7967e+02,-39.4813
2.8019e+02,-39.9312
2.8071e+02,-38.5656
2.8123e+02,-37.1969
2.8175e+02,-44.1344
2.8227e+02,-51.0719
2.8279e+02,-45.5031
2.8332e+02,-39.9312
2.8384e+02,-40.5031
2.8436e+02,-41.0719
2.8488e+02,-43.2906
2.8540e+02,-45.5094
2.8592e+02,-40.6469
2.8644e+02,-35.7812
2.8696e+02,-38.4719
2.8748e+02,-41.1594
2.8800e+02,-38.275
2.8852e+02,-35.3906
2.8904e+02,-36.1562
2.8956e+02,-36.9219
2.9009e+02,-37.5375
2.9061e+02,-38.15
2.9113e+02,-39.6562
2.9165e+02,-41.1594
2.9217e+02,-39.6094
2.9269e+02,-38.0594
2.9321e+02,-39.5656
2.9373e+02,-41.0719
2.9425e+02,-40.5375
2.9477e+02,-40
2.9529e+02,-39.5156
2.9581e+02,-39.0312
2.9634e+02,-47.0406
2.9686e+02,-55.05
2.9738e+02,-53.0625
2.9790e+02,-51.0719
2.9842e+02,-45.9875
2.9894e+02,-40.9
2.9946e+02,-40.9875
2.9998e+02,-41.0719
3.0050e+02,-43.4156
3.0102e+02,-45.7563
3.0154e+02,-43.3281
3.0206e+02,-40.9
3.0258e+02,-37.6344
3.0311e+02,-34.3687
3.0363e+02,-35.3937
3.0415e+02,-36.4188
3.0467e+02,-36.3906
3.0519e+02,-36.3594
3.0571e+02,-42.4406
3.0623e+02,-48.5187
3.0675e+02,-42.1375
3.0727e+02,-35.7563
3.0779e+02,-37.7469
3.0831e+02,-39.7344
3.0883e+02,-39.8344
3.0936e+02,-39.9312
3.0988e+02,-40.9875
3.1040e+02,-42.0406
3.1092e+02,-45.2812
3.1144e+02,-48.5187
3.1196e+02,-44.8406
3.1248e+02,-41.1594
3.1300e+02,-43.1063
3.1352e+02,-45.05
3.1404e+02,-48.0625
3.1456e+02,-51.0719
3.1508e+02,-45.0531
3.1560e+02,-39.0312
3.1613e+02,-45.0531
3.1665e+02,-51.0719
3.1717e+02,-48.2906
3.1769e+02,-45.5094
3.1821e+02,-43.1656
3.1873e+02,-40.8188
3.1925e+02,-43.4188
3.1977e+02,-46.0187
3.2029e+02,-48.5469
3.2081e+02,-51.0719
3.2133e+02,-46.5031
3.2185e+02,-41.9344
3.2238e+02,-42.6875
3.2290e+02,-43.4375
3.2342e+02,-41.6844
3.2394e+02,-39.9312
3.2446e+02,-40.7313
3.2498e+02,-41.5281
3.2550e+02,-39.7094
3.2602e+02,-37.8906
3.2654e+02,-39.4813
3.2706e+02,-41.0719
3.2758e+02,-40.0531
3.2810e+02,-39.0312
3.2862e+02,-39.2313
3.2915e+02,-39.4281
3.2967e+02,-42.2406
3.3019e+02,-45.05
3.3071e+02,-45.9875
3.3123e+02,-46.9219
3.3175e+02,-50.9875
3.3227e+02,-55.05
3.3279e+02,-50.4031
3.3331e+02,-45.7563
3.3383e+02,-45.7563
3.3435e+02,-45.7563
3.3487e+02,-41.6437
3.3540e+02,-37.5312
3.3592e+02,-39.5312
3.3644e+02,-41.5281
3.3696e+02,-41.175
3.3748e+02,-40.8188
3.3800e+02,-46.4312
3.3852e+02,-52.0406
3.3904e+02,-45.2812
3.3956e+02,-38.5187
3.4008e+02,-41.3
3.4060e+02,-44.0812
3.4112e+02,-44.9188
3.4164e+02,-45.7563
3.4217e+02,-41.9094
3.4269e+02,-38.0594
3.4321e+02,-42.4906
3.4373e+02,-46.9219
3.4425e+02,-43.9969
3.4477e+02,-41.0719
3.4529e+02,-49.5656
3.4581e+02,-58.0594
3.4633e+02,-50.2188
3.4685e+02,-42.3781
3.4737e+02,-45.2188
3.4789e+02,-48.0594
3.4842e+02,-47.0406
3.4894e+02,-46.0187
3.4946e+02,-44.0312
3.4998e+02,-42.0406
3.5050e+02,-40.5375
3.5102e+02,-39.0312
3.5154e+02,-39.2313
3.5206e+02,-39.4281
3.5258e+02,-39.8188
3.5310e+02,-40.2062
3.5362e+02,-40.5531
3.5414e+02,-40.9
3.5466e+02,-42.975
3.5519e+02,-45.05
3.5571e+02,-44.2437
3.5623e+02,-43.4375
3.5675e+02,-43.4375
3.5727e+02,-43.4375
3.5779e+02,-40.4094
3.5831e+02,-37.3781
3.5883e+02,-41.2156
3.5935e+02,-45.05
3.5987e+02,-45.4031
3.6039e+02,-45.7563
3.6091e+02,-46.9094
3.6144e+02,-48.0594
3.6196e+02,-42.7969
3.6248e+02,-37.5312
3.6300e+02,-38.4813
3.6352e+02,-39.4281
3.6404e+02,-42.5938
3.6456e+02,-45.7563
3.6508e+02,-42.3937
3.6560e+02,-39.0312
3.6612e+02,-38.3594
3.6664e+02,-37.6875
3.6716e+02,-38.5875
3.6768e+02,-39.4875
3.6821e+02,-39.6125
3.6873e+02,-39.7344
3.6925e+02,-39.7344
3.6977e+02,-39.7344
3.7029e+02,-39.8687
3.7081e+02,-40
3.7133e+02,-41.0219
3.7185e+02,-42.0406
3.7237e+02,-45.2812
3.7289e+02,-48.5187
3.7341e+02,-51.7844
3.7393e+02,-55.05
3.7446e+02,-48.0625
3.7498e+02,-41.0719
3.7550e+02,-43.5469
3.7602e+02,-46.0187
3.7654e+02,-50.5344
3.7706e+02,-55.05
3.7758e+02,-47.2406
3.7810e+02,-39.4281
3.7862e+02,-41.7563
3.7914e+02,-44.0812
3.7966e+02,-43.5469
3.8018e+02,-43.0094
3.8070e+02,-46.0219
3.8123e+02,-49.0312
3.8175e+02,-44.7313
3.8227e+02,-40.4281
3.8279e+02,-41.7188
3.8331e+02,-43.0094
3.8383e+02,-42.4719
3.8435e+02,-41.9344
3.8487e+02,-46.5031
3.8539e+02,-51.0719
3.8591e+02,-46.9094
3.8643e+02,-42.7469
3.8695e+02,-41.5875
3.8748e+02,-40.4281
3.8800e+02,-38.3219
3.8852e+02,-36.2125
3.8904e+02,-42.3656
3.8956e+02,-48.5187
3.9008e+02,-47.2687
3.9060e+02,-46.0187
3.9112e+02,-43.225
3.9164e+02,-40.4281
3.9216e+02,-40.75
3.9268e+02,-41.0719
3.9320e+02,-46.0719
3.9372e+02,-51.0719
3.9425e+02,-49.5656
3.9477e+02,-48.0594
3.9529e+02,-45.05
3.9581e+02,-42.0406
3.9633e+02,-43.0625
3.9685e+02,-44.0812
3.9737e+02,-41.5031
3.9789e+02,-38.9219
3.9841e+02,-44.9969
3.9893e+02,-51.0719
3.9945e+02,-46.7844
3.9997e+02,-42.4969
4.0050e+02,-40.3469
4.0102e+02,-38.1938
4.0154e+02,-38.3813
4.0206e+02,-38.5656
4.0258e+02,-40.6562
4.0310e+02,-42.7469
4.0362e+02,-42.5625
4.0414e+02,-42.3781
4.0466e+02,-40.7062
4.0518e+02,-39.0312
4.0570e+02,-37.725
4.0622e+02,-36.4188
4.0674e+02,-40.1656
4.0727e+02,-43.9125
4.0779e+02,-43.3312
4.0831e+02,-42.7469
4.0883e+02,-43.4156
4.0935e+02,-44.0812
4.0987e+02,-39.7375
4.1039e+02,-35.3906
4.1091e+02,-38.6625
4.1143e+02,-41.9344
4.1195e+02,-43.8469
4.1247e+02,-45.7563
4.1299e+02,-42.9813
4.1352e+02,-40.2062
4.1404e+02,-41.2938
4.1456e+02,-42.3781
4.1508e+02,-46.725
4.1560e+02,-51.0719
4.1612e+02,-45.25
4.1664e+02,-39.4281
4.1716e+02,-38.9969
4.1768e+02,-38.5656
4.1820e+02,-42.7437
4.1872e+02,-46.9219
4.1924e+02,-42.7219
4.1976e+02,-38.5187
4.2029e+02,-39.3625
4.2081e+02,-40.2062
4.2133e+02,-39.5906
4.2185e+02,-38.975
4.2237e+02,-42.4969
4.2289e+02,-46.0187
4.2341e+02,-42.975
4.2393e+02,-39.9312
4.2445e+02,-40.5031
4.2497e+02,-41.0719
4.2549e+02,-41.5031
4.2601e+02,-41.9344
4.2654e+02,-43.7219
4.2706e+02,-45.5094
4.2758e+02,-47.2719
4.2810e+02,-49.0312
4.2862e+02,-47.0406
4.2914e+02,-45.05
4.2966e+02,-48.0625
4.3018e+02,-51.0719
4.3070e+02,-47.2563
4.3122e+02,-43.4375
4.3174e+02,-49.2437
4.3226e+02,-55.05
4.3278e+02,-51.5562
4.3331e+02,-48.0594
4.3383e+02,-47.0406
4.3435e+02,-46.0187
4.3487e+02,-43.775
4.3539e+02,-41.5281
4.3591e+02,-49.7938
4.3643e+02,-58.0594
4.3695e+02,-49.2437
4.3747e+02,-40.4281
4.3799e+02,-37.475
4.3851e+02,-34.5187
4.3903e+02,-36.2906
4.3956e+02,-38.0594
4.4008e+02,-40.9875
4.4060e+02,-43.9125
4.4112e+02,-45.9875
4.4164e+02,-48.0594
4.4216e+02,-45.2188
4.4268e+02,-42.3781
4.4320e+02,-39.9562
4.4372e+02,-37.5312
4.4424e+02,-41.775
4.4476e+02,-46.0187
4.4528e+02,-42.2687
4.4580e+02,-38.5187
4.4633e+02,-37.7219
4.4685e+02,-36.9219
4.4737e+02,-41.4719
4.4789e+02,-46.0187
4.4841e+02,-42.2938
4.4893e+02,-38.5656
4.4945e+02,-38.2938
4.4997e+02,-38.0187
4.5049e+02,-36.85
4.5101e+02,-35.6812
4.5153e+02,-40.3656
4.5205e+02,-45.05
4.5258e+02,-46.7844
4.5310e+02,-48.5187
4.5362e+02,-45.2281
4.5414e+02,-41.9344
4.5466e+02,-41.7313
4.5518e+02,-41.5281
4.5570e+02,-39.7938
4.5622e+02,-38.0594
4.5674e+02,-40.05
4.5726e+02,-42.0406
4.5778e+02,-42.2687
4.5830e+02,-42.4969
4.5882e+02,-43.775
4.5935e+02,-45.05
4.5987e+02,-43.5469
4.6039e+02,-42.0406
4.6091e+02,-46.5562
4.6143e+02,-51.0719
4.6195e+02,-44.225
4.6247e+02,-37.3781
4.6299e+02,-42.95
4.6351e+02,-48.5187
4.6403e+02,-51.7844
4.6455e+02,-55.05
4.6507e+02,-48.2906
4.6560e+02,-41.5281
4.6612e+02,-39.4531
4.6664e+02,-37.3781
4.6716e+02,-37.95
4.6768e+02,-38.5187
4.6820e+02,-40.6344
4.6872e+02,-42.7469
4.6924e+02,-41.9094
4.6976e+02,-41.0719
4.7028e+02,-43.5469
4.7080e+02,-46.0187
4.7132e+02,-47.2687
4.7184e+02,-48.5187
4.7237e+02,-45.6344
4.7289e+02,-42.7469
4.7341e+02,-41.7844
4.7393e+02,-40.8188
4.7445e+02,-43.8719
4.7497e+02,-46.9219
4.7549e+02,-46.9219
4.7601e+02,-46.9219
4.7653e+02,-43.5656
4.7705e+02,-40.2062
4.7757e+02,-39.1125
4.7809e+02,-38.0187
4.7862e+02,-38.3937
4.7914e+02,-38.7656
4.7966e+02,-37.6219
4.8018e+02,-36.4781
4.8070e+02,-40.1969
4.8122e+02,-43.9125
4.8174e+02,-43.9969
4.8226e+02,-44.0812
4.8278e+02,-41.1375
4.8330e+02,-38.1938
4.8382e+02,-41.6219
4.8434e+02,-45.05
4.8486e+02,-43.775
4.8539e+02,-42.4969
4.8591e+02,-46.7844
4.8643e+02,-51.0719
4.8695e+02,-47.5781
4.8747e+02,-44.0812
4.8799e+02,-45.5031
4.8851e+02,-46.9219
4.8903e+02,-52.4906
4.8955e+02,-58.0594
4.9007e+02,-50.05
4.9059e+02,-42.0406
4.9111e+02,-45.5375
4.9164e+02,-49.0312
4.9216e+02,-47.9781
4.9268e+02,-46.9219
4.9320e+02,-41.4188
4.9372e+02,-35.9125
4.9424e+02,-35.4281
4.9476e+02,-34.9438
4.9528e+02,-36.0187
4.9580e+02,-37.0906
4.9632e+02,-38.5125
4.9684e+02,-39.9312
4.9736e+02,-40.1812
4.9788e+02,-40.4281
4.9841e+02,-39.2437
4.9893e+02,-38.0594
4.9945e+02,-38.8969
4.9997e+02,-39.7344
5.0049e+02,-42.3937
5.0101e+02,-45.05
5.0153e+02,-41.9094
5.0205e+02,-38.7656
5.0257e+02,-39.9188
5.0309e+02,-41.0719
5.0361e+02,-41.5031
5.0413e+02,-41.9344
5.0466e+02,-41.3781
5.0518e+02,-40.8188
5.0570e+02,-41.9156
5.0622e+02,-43.0094
5.0674e+02,-45.5344
5.0726e+02,-48.0594
5.0778e+02,-50.05
5.0830e+02,-52.0406
5.0882e+02,-46.125
5.0934e+02,-40.2062
5.0986e+02,-40.5125
5.1038e+02,-40.8188
5.1090e+02,-40.9469
5.1143e+02,-41.0719
5.1195e+02,-41.9094
5.1247e+02,-42.7469
5.1299e+02,-40.8344
5.1351e+02,-38.9219
5.1403e+02,-42.3406
5.1455e+02,-45.7563
5.1507e+02,-44.8344
5.1559e+02,-43.9125
5.1611e+02,-42.3656
5.1663e+02,-40.8188
5.1715e+02,-42.9344
5.1768e+02,-45.05
5.1820e+02,-40.2219
