DATA/B-1/B-1_100kHz_10e-4_FFT.CSV

Model,DPO2024
Firmware Version,1.52

Point Format,Y
Horizontal Units,Hz
Horizontal Scale,26040
Sample Interval,52.08
Filter Frequency,2e+08
Record Length,5000
Gating,0.0% to 100.0%
Probe Attenuation,1
Vertical Units,NONE
Vertical Offset,0
Vertical Scale,20
Label,
TIME,MATH
0.0000e+00,-38.2375
5.2080e+01,-39.2875
1.0416e+02,-40.3344
1.5624e+02,-51.5406
2.0832e+02,-62.7469
2.6040e+02,-61.0594
3.1248e+02,-59.3688
3.6456e+02,-60.6531
4.1664e+02,-61.9344
4.6872e+02,-59.3312
5.2080e+02,-56.725
5.7288e+02,-60.8875
6.2496e+02,-65.05
6.7704e+02,-64.4813
7.2912e+02,-63.9125
7.8120e+02,-64.4813
8.3328e+02,-65.05
8.8536e+02,-65.2812
9.3744e+02,-65.5094
9.8952e+02,-66.7844
1.0416e+03,-68.0594
1.0937e+03,-68.5469
1.1458e+03,-69.0312
1.1978e+03,-67.2719
1.2499e+03,-65.5094
1.3020e+03,-66.7844
1.3541e+03,-68.0594
1.4062e+03,-68.5469
1.4582e+03,-69.0312
1.5103e+03,-66.5563
1.5624e+03,-64.0812
1.6145e+03,-66.5563
1.6666e+03,-69.0312
1.7186e+03,-69.0312
1.7707e+03,-69.0312
1.8228e+03,-68.5469
1.8749e+03,-68.0594
1.9270e+03,-68.5469
1.9790e+03,-69.0312
2.0311e+03,-67.0406
2.0832e+03,-65.05
2.1353e+03,-68.0625
2.1874e+03,-71.0719
2.2394e+03,-68.9969
2.2915e+03,-66.9219
2.3436e+03,-68.9969
2.3957e+03,-71.0719
2.4478e+03,-68.9969
2.4998e+03,-66.9219
2.5519e+03,-67.9781
2.6040e+03,-69.0312
2.6561e+03,-67.9781
2.7082e+03,-66.9219
2.7602e+03,-67.9781
2.8123e+03,-69.0312
2.8644e+03,-69.0312
2.9165e+03,-69.0312
2.9686e+03,-67.0406
3.0206e+03,-65.05
3.0727e+03,-65.2812
3.1248e+03,-65.5094
3.1769e+03,-66.7844
3.2290e+03,-68.0594
3.2810e+03,-67.4906
3.3331e+03,-66.9219
3.3852e+03,-66.9219
3.4373e+03,-66.9219
3.4894e+03,-66.3406
3.5414e+03,-65.7562
3.5935e+03,-68.4156
3.6456e+03,-71.0719
3.6977e+03,-70.0531
3.7498e+03,-69.0312
3.8018e+03,-67.9781
3.8539e+03,-66.9219
3.9060e+03,-66.2156
3.9581e+03,-65.5094
4.0102e+03,-67.0156
4.0622e+03,-68.5187
4.1143e+03,-65.9781
4.1664e+03,-63.4375
4.2185e+03,-64.2438
4.2706e+03,-65.05
4.3226e+03,-68.0625
4.3747e+03,-71.0719
4.4268e+03,-70.0531
4.4789e+03,-69.0312
4.5310e+03,-69.0312
4.5830e+03,-69.0312
4.6351e+03,-67.0406
4.6872e+03,-65.05
4.7393e+03,-67.0406
4.7914e+03,-69.0312
4.8434e+03,-69.0312
4.8955e+03,-69.0312
4.9476e+03,-70.0531
4.9997e+03,-71.0719
5.0518e+03,-68.9969
5.1038e+03,-66.9219
5.1559e+03,-67.9781
5.2080e+03,-69.0312
5.2601e+03,-68.5469
5.3122e+03,-68.0594
5.3642e+03,-68.0594
5.4163e+03,-68.0594
5.4684e+03,-67.0406
5.5205e+03,-66.0187
5.5726e+03,-65.8875
5.6246e+03,-65.7562
5.6767e+03,-66.3406
5.7288e+03,-66.9219
5.7809e+03,-66.9219
5.8330e+03,-66.9219
5.8850e+03,-66.9219
5.9371e+03,-66.9219
5.9892e+03,-72.4906
6.0413e+03,-78.0594
6.0934e+03,-73.5469
6.1454e+03,-69.0312
6.1975e+03,-69.0312
6.2496e+03,-69.0312
6.3017e+03,-73.5469
6.3538e+03,-78.0594
6.4058e+03,-71.0719
6.4579e+03,-64.0812
6.5100e+03,-67.5781
6.5621e+03,-71.0719
6.6142e+03,-71.0719
6.6662e+03,-71.0719
6.7183e+03,-70.0531
6.7704e+03,-69.0312
6.8225e+03,-70.0531
6.8746e+03,-71.0719
6.9266e+03,-70.0531
6.9787e+03,-69.0312
7.0308e+03,-67.9781
7.0829e+03,-66.9219
7.1350e+03,-67.9781
7.1870e+03,-69.0312
7.2391e+03,-72.0406
7.2912e+03,-75.05
7.3433e+03,-72.0406
7.3954e+03,-69.0312
7.4474e+03,-70.5375
7.4995e+03,-72.0406
7.5516e+03,-70.5375
7.6037e+03,-69.0312
7.6558e+03,-70.0531
7.7078e+03,-71.0719
7.7599e+03,-73.0625
7.8120e+03,-75.05
7.8641e+03,-73.0625
7.9162e+03,-71.0719
7.9682e+03,-71.0719
8.0203e+03,-71.0719
8.0724e+03,-71.5563
8.1245e+03,-72.0406
8.1766e+03,-68.9
8.2286e+03,-65.7562
8.2807e+03,-70.4031
8.3328e+03,-75.05
8.3849e+03,-70.2812
8.4370e+03,-65.5094
8.4890e+03,-68.2906
8.5411e+03,-71.0719
8.5932e+03,-71.0719
8.6453e+03,-71.0719
8.6974e+03,-71.0719
8.7494e+03,-71.0719
8.8015e+03,-68.2906
8.8536e+03,-65.5094
8.9057e+03,-71.7844
8.9578e+03,-78.0594
9.0098e+03,-72.4906
9.0619e+03,-66.9219
9.1140e+03,-67.4906
9.1661e+03,-68.0594
9.2182e+03,-70.05
9.2702e+03,-72.0406
9.3223e+03,-70.05
9.3744e+03,-68.0594
9.4265e+03,-69.5656
9.4786e+03,-71.0719
9.5306e+03,-70.0531
9.5827e+03,-69.0312
9.6348e+03,-70.5375
9.6869e+03,-72.0406
9.7390e+03,-69.4813
9.7910e+03,-66.9219
9.8431e+03,-70.9875
9.8952e+03,-75.05
9.9473e+03,-70.9875
9.9994e+03,-66.9219
1.0051e+04,-72.4906
1.0104e+04,-78.0594
1.0156e+04,-72.4906
1.0208e+04,-66.9219
1.0260e+04,-68.9969
1.0312e+04,-71.0719
1.0364e+04,-71.0719
1.0416e+04,-71.0719
1.0468e+04,-71.5563
1.0520e+04,-72.0406
1.0572e+04,-68.5469
1.0624e+04,-65.05
1.0676e+04,-71.5563
1.0728e+04,-78.0594
1.0781e+04,-72.4906
1.0833e+04,-66.9219
1.0885e+04,-70.9875
1.0937e+04,-75.05
1.0989e+04,-73.0625
1.1041e+04,-71.0719
1.1093e+04,-69.7969
1.1145e+04,-68.5187
1.1197e+04,-68.2906
1.1249e+04,-68.0594
1.1301e+04,-69.5656
1.1353e+04,-71.0719
1.1406e+04,-73.0625
1.1458e+04,-75.05
1.1510e+04,-72.0406
1.1562e+04,-69.0312
1.1614e+04,-70.5375
1.1666e+04,-72.0406
1.1718e+04,-70.05
1.1770e+04,-68.0594
1.1822e+04,-68.0594
1.1874e+04,-68.0594
1.1926e+04,-68.5469
1.1978e+04,-69.0312
1.2030e+04,-70.5375
1.2083e+04,-72.0406
1.2135e+04,-70.5375
1.2187e+04,-69.0312
1.2239e+04,-70.0531
1.2291e+04,-71.0719
1.2343e+04,-70.0531
1.2395e+04,-69.0312
1.2447e+04,-68.5469
1.2499e+04,-68.0594
1.2551e+04,-68.0594
1.2603e+04,-68.0594
1.2655e+04,-69.5656
1.2708e+04,-71.0719
1.2760e+04,-71.5563
1.2812e+04,-72.0406
1.2864e+04,-70.5375
1.2916e+04,-69.0312
1.2968e+04,-67.9781
1.3020e+04,-66.9219
1.3072e+04,-69.4813
1.3124e+04,-72.0406
1.3176e+04,-70.05
1.3228e+04,-68.0594
1.3280e+04,-68.5469
1.3332e+04,-69.0312
1.3385e+04,-70.0531
1.3437e+04,-71.0719
1.3489e+04,-69.5656
1.3541e+04,-68.0594
1.3593e+04,-69.5656
1.3645e+04,-71.0719
1.3697e+04,-71.0719
1.3749e+04,-71.0719
1.3801e+04,-70.0531
1.3853e+04,-69.0312
1.3905e+04,-68.775
1.3957e+04,-68.5187
1.4010e+04,-69.7969
1.4062e+04,-71.0719
1.4114e+04,-71.0719
1.4166e+04,-71.0719
1.4218e+04,-69.5656
1.4270e+04,-68.0594
1.4322e+04,-68.5469
1.4374e+04,-69.0312
1.4426e+04,-67.3937
1.4478e+04,-65.7562
1.4530e+04,-66.9094
1.4582e+04,-68.0594
1.4634e+04,-70.05
1.4687e+04,-72.0406
1.4739e+04,-69.4813
1.4791e+04,-66.9219
1.4843e+04,-68.9969
1.4895e+04,-71.0719
1.4947e+04,-68.9969
1.4999e+04,-66.9219
1.5051e+04,-69.4813
1.5103e+04,-72.0406
1.5155e+04,-69.4813
1.5207e+04,-66.9219
1.5259e+04,-70.9875
1.5312e+04,-75.05
1.5364e+04,-72.0406
1.5416e+04,-69.0312
1.5468e+04,-70.0531
1.5520e+04,-71.0719
1.5572e+04,-68.2906
1.5624e+04,-65.5094
1.5676e+04,-68.775
1.5728e+04,-72.0406
1.5780e+04,-69.4813
1.5832e+04,-66.9219
1.5884e+04,-67.4906
1.5936e+04,-68.0594
1.5989e+04,-69.5656
1.6041e+04,-71.0719
1.6093e+04,-70.0531
1.6145e+04,-69.0312
1.6197e+04,-68.5469
1.6249e+04,-68.0594
1.6301e+04,-69.5656
1.6353e+04,-71.0719
1.6405e+04,-71.0719
1.6457e+04,-71.0719
1.6509e+04,-69.5656
1.6561e+04,-68.0594
1.6614e+04,-68.0594
1.6666e+04,-68.0594
1.6718e+04,-68.5469
1.6770e+04,-69.0312
1.6822e+04,-72.0406
1.6874e+04,-75.05
1.6926e+04,-70.9875
1.6978e+04,-66.9219
1.7030e+04,-67.9781
1.7082e+04,-69.0312
1.7134e+04,-69.0312
1.7186e+04,-69.0312
1.7238e+04,-70.0531
1.7291e+04,-71.0719
1.7343e+04,-68.9969
1.7395e+04,-66.9219
1.7447e+04,-67.7219
1.7499e+04,-68.5187
1.7551e+04,-68.5187
1.7603e+04,-68.5187
1.7655e+04,-67.1375
1.7707e+04,-65.7562
1.7759e+04,-65.7562
1.7811e+04,-65.7562
1.7863e+04,-66.9094
1.7916e+04,-68.0594
1.7968e+04,-69.5656
1.8020e+04,-71.0719
1.8072e+04,-68.9969
1.8124e+04,-66.9219
1.8176e+04,-67.4906
1.8228e+04,-68.0594
1.8280e+04,-73.0594
1.8332e+04,-78.0594
1.8384e+04,-71.0719
1.8436e+04,-64.0812
1.8488e+04,-67.5781
1.8540e+04,-71.0719
1.8593e+04,-67.5781
1.8645e+04,-64.0812
1.8697e+04,-67.5781
1.8749e+04,-71.0719
1.8801e+04,-68.9969
1.8853e+04,-66.9219
1.8905e+04,-66.9219
1.8957e+04,-66.9219
1.9009e+04,-70.9875
1.9061e+04,-75.05
1.9113e+04,-70.9875
1.9165e+04,-66.9219
1.9218e+04,-68.9969
1.9270e+04,-71.0719
1.9322e+04,-68.9969
1.9374e+04,-66.9219
1.9426e+04,-68.9969
1.9478e+04,-71.0719
1.9530e+04,-71.0719
1.9582e+04,-71.0719
1.9634e+04,-70.0531
1.9686e+04,-69.0312
1.9738e+04,-67.0406
1.9790e+04,-65.05
1.9842e+04,-68.5469
1.9895e+04,-72.0406
1.9947e+04,-70.5375
1.9999e+04,-69.0312
2.0051e+04,-70.0531
2.0103e+04,-71.0719
2.0155e+04,-71.0719
2.0207e+04,-71.0719
2.0259e+04,-69.5656
2.0311e+04,-68.0594
2.0363e+04,-68.5469
2.0415e+04,-69.0312
2.0467e+04,-70.5375
2.0520e+04,-72.0406
2.0572e+04,-69.4813
2.0624e+04,-66.9219
2.0676e+04,-68.9969
2.0728e+04,-71.0719
2.0780e+04,-71.0719
2.0832e+04,-71.0719
2.0884e+04,-70.0531
2.0936e+04,-69.0312
2.0988e+04,-70.0531
2.1040e+04,-71.0719
2.1092e+04,-73.0625
2.1144e+04,-75.05
2.1197e+04,-72.0406
2.1249e+04,-69.0312
2.1301e+04,-67.9781
2.1353e+04,-66.9219
2.1405e+04,-66.4719
2.1457e+04,-66.0187
2.1509e+04,-69.0312
2.1561e+04,-72.0406
2.1613e+04,-69.4813
2.1665e+04,-66.9219
2.1717e+04,-70.9875
2.1769e+04,-75.05
2.1822e+04,-71.5563
2.1874e+04,-68.0594
2.1926e+04,-68.0594
2.1978e+04,-68.0594
2.2030e+04,-68.0594
2.2082e+04,-68.0594
2.2134e+04,-69.5656
2.2186e+04,-71.0719
2.2238e+04,-73.0625
2.2290e+04,-75.05
2.2342e+04,-73.0625
2.2394e+04,-71.0719
2.2446e+04,-71.0719
2.2499e+04,-71.0719
2.2551e+04,-71.0719
2.2603e+04,-71.0719
2.2655e+04,-71.5563
2.2707e+04,-72.0406
2.2759e+04,-69.4813
2.2811e+04,-66.9219
2.2863e+04,-69.4813
2.2915e+04,-72.0406
2.2967e+04,-71.5563
2.3019e+04,-71.0719
2.3071e+04,-68.0625
2.3124e+04,-65.05
2.3176e+04,-71.5563
2.3228e+04,-78.0594
2.3280e+04,-73.0594
2.3332e+04,-68.0594
2.3384e+04,-68.0594
2.3436e+04,-68.0594
2.3488e+04,-69.5656
2.3540e+04,-71.0719
2.3592e+04,-70.0531
2.3644e+04,-69.0312
2.3696e+04,-70.0531
2.3748e+04,-71.0719
2.3801e+04,-71.0719
2.3853e+04,-71.0719
2.3905e+04,-73.0625
2.3957e+04,-75.05
2.4009e+04,-75.05
2.4061e+04,-75.05
2.4113e+04,-70.2812
2.4165e+04,-65.5094
2.4217e+04,-67.2719
2.4269e+04,-69.0312
2.4321e+04,-70.5375
2.4373e+04,-72.0406
2.4426e+04,-71.5563
2.4478e+04,-71.0719
2.4530e+04,-70.0531
2.4582e+04,-69.0312
2.4634e+04,-72.0406
2.4686e+04,-75.05
2.4738e+04,-70.9875
2.4790e+04,-66.9219
2.4842e+04,-68.9969
2.4894e+04,-71.0719
2.4946e+04,-73.0625
2.4998e+04,-75.05
2.5050e+04,-70.9875
2.5103e+04,-66.9219
2.5155e+04,-68.9969
2.5207e+04,-71.0719
2.5259e+04,-71.5563
2.5311e+04,-72.0406
2.5363e+04,-70.5375
2.5415e+04,-69.0312
2.5467e+04,-73.5469
2.5519e+04,-78.0594
2.5571e+04,-71.0719
2.5623e+04,-64.0812
2.5675e+04,-69.5656
2.5728e+04,-75.05
2.5780e+04,-73.0625
2.5832e+04,-71.0719
2.5884e+04,-70.0531
2.5936e+04,-69.0312
2.5988e+04,-70.5375
2.6040e+04,-72.0406
2.6092e+04,-71.5563
2.6144e+04,-71.0719
2.6196e+04,-69.5656
2.6248e+04,-68.0594
2.6300e+04,-69.5656
2.6352e+04,-71.0719
2.6405e+04,-68.5469
2.6457e+04,-66.0187
2.6509e+04,-67.0406
2.6561e+04,-68.0594
2.6613e+04,-73.0594
2.6665e+04,-78.0594
2.6717e+04,-72.4906
2.6769e+04,-66.9219
2.6821e+04,-72.4906
2.6873e+04,-78.0594
2.6925e+04,-72.4906
2.6977e+04,-66.9219
2.7030e+04,-69.4813
2.7082e+04,-72.0406
2.7134e+04,-71.5563
2.7186e+04,-71.0719
2.7238e+04,-70.0531
2.7290e+04,-69.0312
2.7342e+04,-69.0312
2.7394e+04,-69.0312
2.7446e+04,-68.5469
2.7498e+04,-68.0594
2.7550e+04,-69.5656
2.7602e+04,-71.0719
2.7654e+04,-71.0719
2.7707e+04,-71.0719
2.7759e+04,-70.0531
2.7811e+04,-69.0312
2.7863e+04,-70.0531
2.7915e+04,-71.0719
2.7967e+04,-71.0719
2.8019e+04,-71.0719
2.8071e+04,-70.0531
2.8123e+04,-69.0312
2.8175e+04,-67.9781
2.8227e+04,-66.9219
2.8279e+04,-68.9969
2.8332e+04,-71.0719
2.8384e+04,-73.0625
2.8436e+04,-75.05
2.8488e+04,-73.0625
2.8540e+04,-71.0719
2.8592e+04,-73.0625
2.8644e+04,-75.05
2.8696e+04,-70.9875
2.8748e+04,-66.9219
2.8800e+04,-69.4813
2.8852e+04,-72.0406
2.8904e+04,-69.4813
2.8956e+04,-66.9219
2.9009e+04,-70.9875
2.9061e+04,-75.05
2.9113e+04,-70.9875
2.9165e+04,-66.9219
2.9217e+04,-68.9969
2.9269e+04,-71.0719
2.9321e+04,-71.0719
2.9373e+04,-71.0719
2.9425e+04,-71.0719
2.9477e+04,-71.0719
2.9529e+04,-71.0719
2.9581e+04,-71.0719
2.9634e+04,-68.9969
2.9686e+04,-66.9219
2.9738e+04,-72.4906
2.9790e+04,-78.0594
2.9842e+04,-72.4906
2.9894e+04,-66.9219
2.9946e+04,-68.9969
2.9998e+04,-71.0719
3.0050e+04,-71.0719
3.0102e+04,-71.0719
3.0154e+04,-68.9969
3.0206e+04,-66.9219
3.0258e+04,-68.9969
3.0311e+04,-71.0719
3.0363e+04,-74.5656
3.0415e+04,-78.0594
3.0467e+04,-72.4906
3.0519e+04,-66.9219
3.0571e+04,-69.4813
3.0623e+04,-72.0406
3.0675e+04,-71.5563
3.0727e+04,-71.0719
3.0779e+04,-70.0531
3.0831e+04,-69.0312
3.0883e+04,-70.5375
3.0936e+04,-72.0406
3.0988e+04,-73.5469
3.1040e+04,-75.05
3.1092e+04,-75.05
3.1144e+04,-75.05
3.1196e+04,-72.0406
3.1248e+04,-69.0312
3.1300e+04,-70.5375
3.1352e+04,-72.0406
3.1404e+04,-70.5375
3.1456e+04,-69.0312
3.1508e+04,-73.5469
3.1560e+04,-78.0594
3.1613e+04,-73.0594
3.1665e+04,-68.0594
3.1717e+04,-70.05
3.1769e+04,-72.0406
3.1821e+04,-70.5375
3.1873e+04,-69.0312
3.1925e+04,-70.0531
3.1977e+04,-71.0719
3.2029e+04,-74.5656
3.2081e+04,-78.0594
3.2133e+04,-73.0594
3.2185e+04,-68.0594
3.2238e+04,-67.4906
3.2290e+04,-66.9219
3.2342e+04,-67.9781
3.2394e+04,-69.0312
3.2446e+04,-73.5469
3.2498e+04,-78.0594
3.2550e+04,-71.7844
3.2602e+04,-65.5094
3.2654e+04,-68.2906
3.2706e+04,-71.0719
3.2758e+04,-70.0531
3.2810e+04,-69.0312
3.2862e+04,-70.0531
3.2915e+04,-71.0719
3.2967e+04,-68.0625
3.3019e+04,-65.05
3.3071e+04,-71.5563
3.3123e+04,-78.0594
3.3175e+04,-73.5469
3.3227e+04,-69.0312
3.3279e+04,-67.9781
3.3331e+04,-66.9219
3.3383e+04,-70.9875
3.3435e+04,-75.05
3.3487e+04,-72.0406
3.3540e+04,-69.0312
3.3592e+04,-73.5469
3.3644e+04,-78.0594
3.3696e+04,-74.5656
3.3748e+04,-71.0719
3.3800e+04,-70.0531
3.3852e+04,-69.0312
3.3904e+04,-70.0531
3.3956e+04,-71.0719
3.4008e+04,-71.0719
3.4060e+04,-71.0719
3.4112e+04,-74.5656
3.4164e+04,-78.0594
3.4217e+04,-73.0594
3.4269e+04,-68.0594
3.4321e+04,-67.4906
3.4373e+04,-66.9219
3.4425e+04,-68.9969
3.4477e+04,-71.0719
3.4529e+04,-71.0719
3.4581e+04,-71.0719
3.4633e+04,-71.0719
3.4685e+04,-71.0719
3.4737e+04,-71.0719
3.4789e+04,-71.0719
3.4842e+04,-71.0719
3.4894e+04,-71.0719
3.4946e+04,-68.9969
3.4998e+04,-66.9219
3.5050e+04,-72.4906
3.5102e+04,-78.0594
3.5154e+04,-73.5469
3.5206e+04,-69.0312
3.5258e+04,-73.5469
3.5310e+04,-78.0594
3.5362e+04,-73.5469
3.5414e+04,-69.0312
3.5466e+04,-70.5375
3.5519e+04,-72.0406
3.5571e+04,-73.5469
3.5623e+04,-75.05
3.5675e+04,-72.0406
3.5727e+04,-69.0312
3.5779e+04,-73.5469
3.5831e+04,-78.0594
3.5883e+04,-78.0594
3.5935e+04,-78.0594
3.5987e+04,-73.5469
3.6039e+04,-69.0312
3.6091e+04,-70.5375
3.6144e+04,-72.0406
3.6196e+04,-75.05
3.6248e+04,-78.0594
3.6300e+04,-72.4906
3.6352e+04,-66.9219
3.6404e+04,-72.4906
3.6456e+04,-78.0594
3.6508e+04,-74.5656
3.6560e+04,-71.0719
3.6612e+04,-69.5656
3.6664e+04,-68.0594
3.6716e+04,-70.05
3.6768e+04,-72.0406
3.6821e+04,-71.5563
3.6873e+04,-71.0719
3.6925e+04,-71.0719
3.6977e+04,-71.0719
3.7029e+04,-73.0625
3.7081e+04,-75.05
3.7133e+04,-75.05
3.7185e+04,-75.05
3.7237e+04,-70.9875
3.7289e+04,-66.9219
3.7341e+04,-68.9969
3.7393e+04,-71.0719
3.7446e+04,-71.0719
3.7498e+04,-71.0719
3.7550e+04,-74.5656
3.7602e+04,-78.0594
3.7654e+04,-72.4906
3.7706e+04,-66.9219
3.7758e+04,-67.4906
3.7810e+04,-68.0594
3.7862e+04,-73.0594
3.7914e+04,-78.0594
3.7966e+04,-73.5469
3.8018e+04,-69.0312
3.8070e+04,-72.0406
3.8123e+04,-75.05
3.8175e+04,-71.5563
3.8227e+04,-68.0594
3.8279e+04,-73.0594
3.8331e+04,-78.0594
3.8383e+04,-74.5656
3.8435e+04,-71.0719
3.8487e+04,-71.5563
3.8539e+04,-72.0406
3.8591e+04,-70.5375
3.8643e+04,-69.0312
3.8695e+04,-68.5469
3.8748e+04,-68.0594
3.8800e+04,-68.5469
3.8852e+04,-69.0312
3.8904e+04,-70.0531
3.8956e+04,-71.0719
3.9008e+04,-74.5656
3.9060e+04,-78.0594
3.9112e+04,-72.4906
3.9164e+04,-66.9219
3.9216e+04,-72.4906
3.9268e+04,-78.0594
3.9320e+04,-73.5469
3.9372e+04,-69.0312
3.9425e+04,-73.5469
3.9477e+04,-78.0594
3.9529e+04,-74.5656
3.9581e+04,-71.0719
3.9633e+04,-74.5656
3.9685e+04,-78.0594
3.9737e+04,-72.4906
3.9789e+04,-66.9219
3.9841e+04,-69.4813
3.9893e+04,-72.0406
3.9945e+04,-71.5563
3.9997e+04,-71.0719
4.0050e+04,-71.5563
4.0102e+04,-72.0406
4.0154e+04,-71.5563
4.0206e+04,-71.0719
4.0258e+04,-69.5656
4.0310e+04,-68.0594
4.0362e+04,-70.05
4.0414e+04,-72.0406
4.0466e+04,-70.5375
4.0518e+04,-69.0312
4.0570e+04,-73.5469
4.0622e+04,-78.0594
4.0674e+04,-74.5656
4.0727e+04,-71.0719
4.0779e+04,-71.0719
4.0831e+04,-71.0719
4.0883e+04,-68.9969
4.0935e+04,-66.9219
4.0987e+04,-72.4906
4.1039e+04,-78.0594
4.1091e+04,-74.5656
4.1143e+04,-71.0719
4.1195e+04,-68.9969
4.1247e+04,-66.9219
4.1299e+04,-72.4906
4.1352e+04,-78.0594
4.1404e+04,-73.0594
4.1456e+04,-68.0594
4.1508e+04,-73.0594
4.1560e+04,-78.0594
4.1612e+04,-72.4906
4.1664e+04,-66.9219
4.1716e+04,-68.9969
4.1768e+04,-71.0719
4.1820e+04,-71.0719
4.1872e+04,-71.0719
4.1924e+04,-73.0625
4.1976e+04,-75.05
4.2029e+04,-70.9875
4.2081e+04,-66.9219
4.2133e+04,-70.9875
4.2185e+04,-75.05
4.2237e+04,-73.0625
4.2289e+04,-71.0719
4.2341e+04,-68.0625
4.2393e+04,-65.05
4.2445e+04,-70.05
4.2497e+04,-75.05
4.2549e+04,-75.05
4.2601e+04,-75.05
4.2654e+04,-73.5469
4.2706e+04,-72.0406
4.2758e+04,-70.05
4.2810e+04,-68.0594
4.2862e+04,-70.05
4.2914e+04,-72.0406
4.2966e+04,-73.5469
4.3018e+04,-75.05
4.3070e+04,-72.0406
4.3122e+04,-69.0312
4.3174e+04,-72.0406
4.3226e+04,-75.05
4.3278e+04,-73.0625
4.3331e+04,-71.0719
4.3383e+04,-71.5563
4.3435e+04,-72.0406
4.3487e+04,-72.0406
4.3539e+04,-72.0406
4.3591e+04,-73.5469
4.3643e+04,-75.05
4.3695e+04,-71.5563
4.3747e+04,-68.0594
4.3799e+04,-73.0594
4.3851e+04,-78.0594
4.3903e+04,-74.5656
4.3956e+04,-71.0719
4.4008e+04,-74.5656
4.4060e+04,-78.0594
4.4112e+04,-74.5656
4.4164e+04,-71.0719
4.4216e+04,-71.5563
4.4268e+04,-72.0406
4.4320e+04,-71.5563
4.4372e+04,-71.0719
4.4424e+04,-73.0625
4.4476e+04,-75.05
4.4528e+04,-71.5563
4.4580e+04,-68.0594
4.4633e+04,-71.5563
4.4685e+04,-75.05
4.4737e+04,-75.05
4.4789e+04,-75.05
4.4841e+04,-75.05
4.4893e+04,-75.05
4.4945e+04,-70.9875
4.4997e+04,-66.9219
4.5049e+04,-72.4906
4.5101e+04,-78.0594
4.5153e+04,-73.5469
4.5205e+04,-69.0312
4.5258e+04,-73.5469
4.5310e+04,-78.0594
4.5362e+04,-76.5563
4.5414e+04,-75.05
4.5466e+04,-73.0625
4.5518e+04,-71.0719
4.5570e+04,-74.5656
4.5622e+04,-78.0594
4.5674e+04,-76.5563
4.5726e+04,-75.05
4.5778e+04,-75.05
4.5830e+04,-75.05
4.5882e+04,-73.5469
4.5935e+04,-72.0406
4.5987e+04,-73.5469
4.6039e+04,-75.05
4.6091e+04,-73.5469
4.6143e+04,-72.0406
4.6195e+04,-70.05
4.6247e+04,-68.0594
4.6299e+04,-73.0594
4.6351e+04,-78.0594
4.6403e+04,-75.05
4.6455e+04,-72.0406
4.6507e+04,-73.5469
4.6560e+04,-75.05
4.6612e+04,-73.5469
4.6664e+04,-72.0406
4.6716e+04,-70.5375
4.6768e+04,-69.0312
4.6820e+04,-72.0406
4.6872e+04,-75.05
4.6924e+04,-76.5563
4.6976e+04,-78.0594
4.7028e+04,-75.05
4.7080e+04,-72.0406
4.7132e+04,-71.5563
4.7184e+04,-71.0719
4.7237e+04,-69.5656
4.7289e+04,-68.0594
4.7341e+04,-73.0594
4.7393e+04,-78.0594
4.7445e+04,-73.5469
4.7497e+04,-69.0312
4.7549e+04,-72.0406
4.7601e+04,-75.05
4.7653e+04,-76.5563
4.7705e+04,-78.0594
4.7757e+04,-73.5469
4.7809e+04,-69.0312
4.7862e+04,-73.5469
4.7914e+04,-78.0594
4.7966e+04,-76.5563
4.8018e+04,-75.05
4.8070e+04,-73.0625
4.8122e+04,-71.0719
4.8174e+04,-71.0719
4.8226e+04,-71.0719
4.8278e+04,-74.5656
4.8330e+04,-78.0594
4.8382e+04,-74.5656
4.8434e+04,-71.0719
4.8486e+04,-74.5656
4.8539e+04,-78.0594
4.8591e+04,-72.4906
4.8643e+04,-66.9219
4.8695e+04,-72.4906
4.8747e+04,-78.0594
4.8799e+04,-76.5563
4.8851e+04,-75.05
4.8903e+04,-73.0625
4.8955e+04,-71.0719
4.9007e+04,-73.0625
4.9059e+04,-75.05
4.9111e+04,-73.5469
4.9164e+04,-72.0406
4.9216e+04,-71.5563
4.9268e+04,-71.0719
4.9320e+04,-73.0625
4.9372e+04,-75.05
4.9424e+04,-73.0625
4.9476e+04,-71.0719
4.9528e+04,-74.5656
4.9580e+04,-78.0594
4.9632e+04,-76.5563
4.9684e+04,-75.05
4.9736e+04,-72.0406
4.9788e+04,-69.0312
4.9841e+04,-73.5469
4.9893e+04,-78.0594
4.9945e+04,-73.5469
4.9997e+04,-69.0312
5.0049e+04,-70.0531
5.0101e+04,-71.0719
5.0153e+04,-73.0625
5.0205e+04,-75.05
5.0257e+04,-76.5563
5.0309e+04,-78.0594
5.0361e+04,-71.7844
5.0413e+04,-65.5094
5.0466e+04,-70.2812
5.0518e+04,-75.05
5.0570e+04,-73.0625
5.0622e+04,-71.0719
5.0674e+04,-74.5656
5.0726e+04,-78.0594
5.0778e+04,-74.5656
5.0830e+04,-71.0719
5.0882e+04,-71.0719
5.0934e+04,-71.0719
5.0986e+04,-74.5656
5.1038e+04,-78.0594
5.1090e+04,-74.5656
5.1143e+04,-71.0719
5.1195e+04,-74.5656
5.1247e+04,-78.0594
5.1299e+04,-72.4906
5.1351e+04,-66.9219
5.1403e+04,-72.4906
5.1455e+04,-78.0594
5.1507e+04,-73.5469
5.1559e+04,-69.0312
5.1611e+04,-73.5469
5.1663e+04,-78.0594
5.1715e+04,-75.05
5.1768e+04,-72.0406
