DATA/B-1/B-1_1MHz_10e-4_FFT.CSV

Model,DPO2024
Firmware Version,1.52

Point Format,Y
Horizontal Units,Hz
Horizontal Scale,260400
Sample Interval,520.8
Filter Frequency,2e+08
Record Length,5000
Gating,0.0% to 100.0%
Probe Attenuation,1
Vertical Units,NONE
Vertical Offset,0
Vertical Scale,20
Label,
TIME,MATH
0.0000e+00,-38.6969
5.2080e+02,-39.6812
1.0416e+03,-40.6625
1.5624e+03,-54.5906
2.0832e+03,-68.5187
2.6040e+03,-64.3625
3.1248e+03,-60.2062
3.6456e+03,-64.1344
4.1664e+03,-68.0594
4.6872e+03,-69.5656
5.2080e+03,-71.0719
5.7288e+03,-67.2562
6.2496e+03,-63.4375
6.7704e+03,-61.4031
7.2912e+03,-59.3688
7.8120e+03,-65.2219
8.3328e+03,-71.0719
8.8536e+03,-66.0719
9.3744e+03,-61.0719
9.8952e+03,-60.9875
1.0416e+04,-60.9
1.0937e+04,-66.4719
1.1458e+04,-72.0406
1.1978e+04,-70.05
1.2499e+04,-68.0594
1.3020e+04,-68.2906
1.3541e+04,-68.5187
1.4062e+04,-64.225
1.4582e+04,-59.9313
1.5103e+04,-62.975
1.5624e+04,-66.0187
1.6145e+04,-66.0187
1.6666e+04,-66.0187
1.7186e+04,-65.05
1.7707e+04,-64.0812
1.8228e+04,-67.5781
1.8749e+04,-71.0719
1.9270e+04,-71.0719
1.9790e+04,-71.0719
2.0311e+04,-67.2562
2.0832e+04,-63.4375
2.1353e+04,-67.7406
2.1874e+04,-72.0406
2.2394e+04,-66.4719
2.2915e+04,-60.9
2.3436e+04,-69.4813
2.3957e+04,-78.0594
2.4478e+04,-71.5563
2.4998e+04,-65.05
2.5519e+04,-63.7156
2.6040e+04,-62.3781
2.6561e+04,-67.2094
2.7082e+04,-72.0406
2.7602e+04,-69.0312
2.8123e+04,-66.0187
2.8644e+04,-65.05
2.9165e+04,-64.0812
2.9686e+04,-65.5031
3.0206e+04,-66.9219
3.0727e+04,-65.5031
3.1248e+04,-64.0812
3.1769e+04,-69.5656
3.2290e+04,-75.05
3.2810e+04,-67.975
3.3331e+04,-60.9
3.3852e+04,-63.4594
3.4373e+04,-66.0187
3.4894e+04,-64.2594
3.5414e+04,-62.4969
3.5935e+04,-67.2687
3.6456e+04,-72.0406
3.6977e+04,-67.7406
3.7498e+04,-63.4375
3.8018e+04,-64.5969
3.8539e+04,-65.7562
3.9060e+04,-68.4156
3.9581e+04,-71.0719
4.0102e+04,-67.4938
4.0622e+04,-63.9125
4.1143e+04,-64.9656
4.1664e+04,-66.0187
4.2185e+04,-65.05
4.2706e+04,-64.0812
4.3226e+04,-68.0625
4.3747e+04,-72.0406
4.4268e+04,-70.05
4.4789e+04,-68.0594
4.5310e+04,-66.5563
4.5830e+04,-65.05
4.6351e+04,-65.4031
4.6872e+04,-65.7562
4.7393e+04,-67.3937
4.7914e+04,-69.0312
4.8434e+04,-66.5563
4.8955e+04,-64.0812
4.9476e+04,-71.0719
4.9997e+04,-78.0594
5.0518e+04,-71.0719
5.1038e+04,-64.0812
5.1559e+04,-64.9188
5.2080e+04,-65.7562
5.2601e+04,-71.9094
5.3122e+04,-78.0594
5.3642e+04,-70.75
5.4163e+04,-63.4375
5.4684e+04,-69.2438
5.5205e+04,-75.05
5.5726e+04,-69.5656
5.6246e+04,-64.0812
5.6767e+04,-68.0625
5.7288e+04,-72.0406
5.7809e+04,-67.525
5.8330e+04,-63.0094
5.8850e+04,-70.5344
5.9371e+04,-78.0594
5.9892e+04,-70.75
6.0413e+04,-63.4375
6.0934e+04,-66.2344
6.1454e+04,-69.0312
6.1975e+04,-73.5469
6.2496e+04,-78.0594
6.3017e+04,-73.5469
6.3538e+04,-69.0312
6.4058e+04,-70.5375
6.4579e+04,-72.0406
6.5100e+04,-68.0625
6.5621e+04,-64.0812
6.6142e+04,-68.0625
6.6662e+04,-72.0406
6.7183e+04,-69.4813
6.7704e+04,-66.9219
6.8225e+04,-67.4906
6.8746e+04,-68.0594
6.9266e+04,-73.0594
6.9787e+04,-78.0594
7.0308e+04,-71.5563
7.0829e+04,-65.05
7.1350e+04,-65.5344
7.1870e+04,-66.0187
7.2391e+04,-67.2687
7.2912e+04,-68.5187
7.3433e+04,-68.2906
7.3954e+04,-68.0594
7.4474e+04,-68.2906
7.4995e+04,-68.5187
7.5516e+04,-69.7969
7.6037e+04,-71.0719
7.6558e+04,-74.5656
7.7078e+04,-78.0594
7.7599e+04,-76.5563
7.8120e+04,-75.05
7.8641e+04,-68.9
7.9162e+04,-62.7469
7.9682e+04,-67.3937
8.0203e+04,-72.0406
8.0724e+04,-68.0625
8.1245e+04,-64.0812
8.1766e+04,-71.0719
8.2286e+04,-78.0594
8.2807e+04,-70.05
8.3328e+04,-62.0406
8.3849e+04,-68.5469
8.4370e+04,-75.05
8.4890e+04,-67.6281
8.5411e+04,-60.2062
8.5932e+04,-66.125
8.6453e+04,-72.0406
8.6974e+04,-73.5469
8.7494e+04,-75.05
8.8015e+04,-69.2438
8.8536e+04,-63.4375
8.9057e+04,-63.7594
8.9578e+04,-64.0812
9.0098e+04,-66.0719
9.0619e+04,-68.0594
9.1140e+04,-73.0594
9.1661e+04,-78.0594
9.2182e+04,-72.4906
9.2702e+04,-66.9219
9.3223e+04,-70.9875
9.3744e+04,-75.05
9.4265e+04,-70.9875
9.4786e+04,-66.9219
9.5306e+04,-72.4906
9.5827e+04,-78.0594
9.6348e+04,-71.7844
9.6869e+04,-65.5094
9.7390e+04,-70.2812
9.7910e+04,-75.05
9.8431e+04,-73.0625
9.8952e+04,-71.0719
9.9473e+04,-73.0625
9.9994e+04,-75.05
1.0051e+05,-70.4031
1.0104e+05,-65.7562
1.0156e+05,-66.9094
1.0208e+05,-68.0594
1.0260e+05,-73.0594
1.0312e+05,-78.0594
1.0364e+05,-74.5656
1.0416e+05,-71.0719
1.0468e+05,-71.0719
1.0520e+05,-71.0719
1.0572e+05,-69.5656
1.0624e+05,-68.0594
1.0676e+05,-73.0594
1.0728e+05,-78.0594
1.0781e+05,-70.2781
1.0833e+05,-62.4969
1.0885e+05,-67.2687
1.0937e+05,-72.0406
1.0989e+05,-75.05
1.1041e+05,-78.0594
1.1093e+05,-71.0719
1.1145e+05,-64.0812
1.1197e+05,-68.0625
1.1249e+05,-72.0406
1.1301e+05,-68.0625
1.1353e+05,-64.0812
1.1406e+05,-65.05
1.1458e+05,-66.0187
1.1510e+05,-70.5344
1.1562e+05,-75.05
1.1614e+05,-72.0406
1.1666e+05,-69.0312
1.1718e+05,-68.5469
1.1770e+05,-68.0594
1.1822e+05,-70.05
1.1874e+05,-72.0406
1.1926e+05,-70.05
1.1978e+05,-68.0594
1.2030e+05,-68.2906
1.2083e+05,-68.5187
1.2135e+05,-70.2812
1.2187e+05,-72.0406
1.2239e+05,-69.4813
1.2291e+05,-66.9219
1.2343e+05,-68.9969
1.2395e+05,-71.0719
1.2447e+05,-68.0625
1.2499e+05,-65.05
1.2551e+05,-71.5563
1.2603e+05,-78.0594
1.2655e+05,-72.0406
1.2708e+05,-66.0187
1.2760e+05,-67.525
1.2812e+05,-69.0312
1.2864e+05,-73.5469
1.2916e+05,-78.0594
1.2968e+05,-71.9094
1.3020e+05,-65.7562
1.3072e+05,-64.9188
1.3124e+05,-64.0812
1.3176e+05,-67.5781
1.3228e+05,-71.0719
1.3280e+05,-68.2906
1.3332e+05,-65.5094
1.3385e+05,-70.2812
1.3437e+05,-75.05
1.3489e+05,-68.9
1.3541e+05,-62.7469
1.3593e+05,-64.8344
1.3645e+05,-66.9219
1.3697e+05,-70.9875
1.3749e+05,-75.05
1.3801e+05,-70.9875
1.3853e+05,-66.9219
1.3905e+05,-65.5031
1.3957e+05,-64.0812
1.4010e+05,-66.3
1.4062e+05,-68.5187
1.4114e+05,-69.7969
1.4166e+05,-71.0719
1.4218e+05,-66.9094
1.4270e+05,-62.7469
1.4322e+05,-67.3937
1.4374e+05,-72.0406
1.4426e+05,-71.5563
1.4478e+05,-71.0719
1.4530e+05,-69.5656
1.4582e+05,-68.0594
1.4634e+05,-66.7844
1.4687e+05,-65.5094
1.4739e+05,-68.775
1.4791e+05,-72.0406
1.4843e+05,-67.3937
1.4895e+05,-62.7469
1.4947e+05,-66.9094
1.4999e+05,-71.0719
1.5051e+05,-68.0625
1.5103e+05,-65.05
1.5155e+05,-68.5469
1.5207e+05,-72.0406
1.5259e+05,-68.0625
1.5312e+05,-64.0812
1.5364e+05,-68.0625
1.5416e+05,-72.0406
1.5468e+05,-70.05
1.5520e+05,-68.0594
1.5572e+05,-67.4906
1.5624e+05,-66.9219
1.5676e+05,-72.4906
1.5728e+05,-78.0594
1.5780e+05,-70.75
1.5832e+05,-63.4375
1.5884e+05,-64.7281
1.5936e+05,-66.0187
1.5989e+05,-68.5469
1.6041e+05,-71.0719
1.6093e+05,-67.5781
1.6145e+05,-64.0812
1.6197e+05,-71.0719
1.6249e+05,-78.0594
1.6301e+05,-72.4906
1.6353e+05,-66.9219
1.6405e+05,-65.9875
1.6457e+05,-65.05
1.6509e+05,-68.5469
1.6561e+05,-72.0406
1.6614e+05,-71.5563
1.6666e+05,-71.0719
1.6718e+05,-68.0625
1.6770e+05,-65.05
1.6822e+05,-67.0406
1.6874e+05,-69.0312
1.6926e+05,-66.0219
1.6978e+05,-63.0094
1.7030e+05,-70.5344
1.7082e+05,-78.0594
1.7134e+05,-73.0594
1.7186e+05,-68.0594
1.7238e+05,-67.4906
1.7291e+05,-66.9219
1.7343e+05,-68.9969
1.7395e+05,-71.0719
1.7447e+05,-71.0719
1.7499e+05,-71.0719
1.7551e+05,-71.0719
1.7603e+05,-71.0719
1.7655e+05,-68.9969
1.7707e+05,-66.9219
1.7759e+05,-72.4906
1.7811e+05,-78.0594
1.7863e+05,-70.75
1.7916e+05,-63.4375
1.7968e+05,-65.9781
1.8020e+05,-68.5187
1.8072e+05,-68.2906
1.8124e+05,-68.0594
1.8176e+05,-65.5344
1.8228e+05,-63.0094
1.8280e+05,-70.5344
1.8332e+05,-78.0594
1.8384e+05,-74.5656
1.8436e+05,-71.0719
1.8488e+05,-71.0719
1.8540e+05,-71.0719
1.8593e+05,-69.5656
1.8645e+05,-68.0594
1.8697e+05,-67.4906
1.8749e+05,-66.9219
1.8801e+05,-67.9781
1.8853e+05,-69.0312
1.8905e+05,-70.0531
1.8957e+05,-71.0719
1.9009e+05,-68.0625
1.9061e+05,-65.05
1.9113e+05,-68.0625
1.9165e+05,-71.0719
1.9218e+05,-74.5656
1.9270e+05,-78.0594
1.9322e+05,-71.0719
1.9374e+05,-64.0812
1.9426e+05,-67.5781
1.9478e+05,-71.0719
1.9530e+05,-71.0719
1.9582e+05,-71.0719
1.9634e+05,-68.0625
1.9686e+05,-65.05
1.9738e+05,-70.05
1.9790e+05,-75.05
1.9842e+05,-72.0406
1.9895e+05,-69.0312
1.9947e+05,-69.0312
1.9999e+05,-69.0312
2.0051e+05,-68.5469
2.0103e+05,-68.0594
2.0155e+05,-73.0594
2.0207e+05,-78.0594
2.0259e+05,-72.4906
2.0311e+05,-66.9219
2.0363e+05,-67.9781
2.0415e+05,-69.0312
2.0467e+05,-70.0531
2.0520e+05,-71.0719
2.0572e+05,-68.5469
2.0624e+05,-66.0187
2.0676e+05,-66.0187
2.0728e+05,-66.0187
2.0780e+05,-67.525
2.0832e+05,-69.0312
2.0884e+05,-68.5469
2.0936e+05,-68.0594
2.0988e+05,-70.05
2.1040e+05,-72.0406
2.1092e+05,-71.5563
2.1144e+05,-71.0719
2.1197e+05,-69.5656
2.1249e+05,-68.0594
2.1301e+05,-68.0594
2.1353e+05,-68.0594
2.1405e+05,-69.5656
2.1457e+05,-71.0719
2.1509e+05,-69.5656
2.1561e+05,-68.0594
2.1613e+05,-71.5563
2.1665e+05,-75.05
2.1717e+05,-75.05
2.1769e+05,-75.05
2.1822e+05,-70.9875
2.1874e+05,-66.9219
2.1926e+05,-68.9969
2.1978e+05,-71.0719
2.2030e+05,-73.0625
2.2082e+05,-75.05
2.2134e+05,-70.9875
2.2186e+05,-66.9219
2.2238e+05,-67.9781
2.2290e+05,-69.0312
2.2342e+05,-70.0531
2.2394e+05,-71.0719
2.2446e+05,-70.0531
2.2499e+05,-69.0312
2.2551e+05,-73.5469
2.2603e+05,-78.0594
2.2655e+05,-78.0594
2.2707e+05,-78.0594
2.2759e+05,-73.5469
2.2811e+05,-69.0312
2.2863e+05,-70.0531
2.2915e+05,-71.0719
2.2967e+05,-71.0719
2.3019e+05,-71.0719
2.3071e+05,-74.5656
2.3124e+05,-78.0594
2.3176e+05,-73.0594
2.3228e+05,-68.0594
2.3280e+05,-69.5656
2.3332e+05,-71.0719
2.3384e+05,-74.5656
2.3436e+05,-78.0594
2.3488e+05,-73.5469
2.3540e+05,-69.0312
2.3592e+05,-72.0406
2.3644e+05,-75.05
2.3696e+05,-70.9875
2.3748e+05,-66.9219
2.3801e+05,-69.4813
2.3853e+05,-72.0406
2.3905e+05,-75.05
2.3957e+05,-78.0594
2.4009e+05,-73.5469
2.4061e+05,-69.0312
2.4113e+05,-67.9781
2.4165e+05,-66.9219
2.4217e+05,-70.9875
2.4269e+05,-75.05
2.4321e+05,-72.0406
2.4373e+05,-69.0312
2.4426e+05,-70.0531
2.4478e+05,-71.0719
2.4530e+05,-71.0719
2.4582e+05,-71.0719
2.4634e+05,-71.0719
2.4686e+05,-71.0719
2.4738e+05,-70.0531
2.4790e+05,-69.0312
2.4842e+05,-70.5375
2.4894e+05,-72.0406
2.4946e+05,-75.05
2.4998e+05,-78.0594
2.5050e+05,-73.0594
2.5103e+05,-68.0594
2.5155e+05,-69.5656
2.5207e+05,-71.0719
2.5259e+05,-68.9969
2.5311e+05,-66.9219
2.5363e+05,-70.9875
2.5415e+05,-75.05
2.5467e+05,-75.05
2.5519e+05,-75.05
2.5571e+05,-75.05
2.5623e+05,-75.05
2.5675e+05,-73.0625
2.5728e+05,-71.0719
2.5780e+05,-70.0531
2.5832e+05,-69.0312
2.5884e+05,-73.5469
2.5936e+05,-78.0594
2.5988e+05,-72.4906
2.6040e+05,-66.9219
2.6092e+05,-68.9969
2.6144e+05,-71.0719
2.6196e+05,-69.7969
2.6248e+05,-68.5187
2.6300e+05,-70.2812
2.6352e+05,-72.0406
2.6405e+05,-71.5563
2.6457e+05,-71.0719
2.6509e+05,-73.0625
2.6561e+05,-75.05
2.6613e+05,-73.0625
2.6665e+05,-71.0719
2.6717e+05,-70.0531
2.6769e+05,-69.0312
2.6821e+05,-70.0531
2.6873e+05,-71.0719
2.6925e+05,-70.0531
2.6977e+05,-69.0312
2.7030e+05,-70.0531
2.7082e+05,-71.0719
2.7134e+05,-71.0719
2.7186e+05,-71.0719
2.7238e+05,-70.0531
2.7290e+05,-69.0312
2.7342e+05,-70.0531
2.7394e+05,-71.0719
2.7446e+05,-71.0719
2.7498e+05,-71.0719
2.7550e+05,-71.0719
2.7602e+05,-71.0719
2.7654e+05,-71.0719
2.7707e+05,-71.0719
2.7759e+05,-73.0625
2.7811e+05,-75.05
2.7863e+05,-73.0625
2.7915e+05,-71.0719
2.7967e+05,-71.0719
2.8019e+05,-71.0719
2.8071e+05,-68.9969
2.8123e+05,-66.9219
2.8175e+05,-68.9969
2.8227e+05,-71.0719
2.8279e+05,-68.9969
2.8332e+05,-66.9219
2.8384e+05,-72.4906
2.8436e+05,-78.0594
2.8488e+05,-73.5469
2.8540e+05,-69.0312
2.8592e+05,-70.0531
2.8644e+05,-71.0719
2.8696e+05,-70.0531
2.8748e+05,-69.0312
2.8800e+05,-70.0531
2.8852e+05,-71.0719
2.8904e+05,-70.0531
2.8956e+05,-69.0312
2.9009e+05,-72.0406
2.9061e+05,-75.05
2.9113e+05,-73.0625
2.9165e+05,-71.0719
2.9217e+05,-69.5656
2.9269e+05,-68.0594
2.9321e+05,-69.5656
2.9373e+05,-71.0719
2.9425e+05,-73.0625
2.9477e+05,-75.05
2.9529e+05,-72.0406
2.9581e+05,-69.0312
2.9634e+05,-70.0531
2.9686e+05,-71.0719
2.9738e+05,-71.0719
2.9790e+05,-71.0719
2.9842e+05,-73.0625
2.9894e+05,-75.05
2.9946e+05,-73.0625
2.9998e+05,-71.0719
3.0050e+05,-71.0719
3.0102e+05,-71.0719
3.0154e+05,-71.0719
3.0206e+05,-71.0719
3.0258e+05,-68.9969
3.0311e+05,-66.9219
3.0363e+05,-70.9875
3.0415e+05,-75.05
3.0467e+05,-72.0406
3.0519e+05,-69.0312
3.0571e+05,-72.0406
3.0623e+05,-75.05
3.0675e+05,-72.0406
3.0727e+05,-69.0312
3.0779e+05,-73.5469
3.0831e+05,-78.0594
3.0883e+05,-74.5656
3.0936e+05,-71.0719
3.0988e+05,-71.0719
3.1040e+05,-71.0719
3.1092e+05,-68.9969
3.1144e+05,-66.9219
3.1196e+05,-68.9969
3.1248e+05,-71.0719
3.1300e+05,-74.5656
3.1352e+05,-78.0594
3.1404e+05,-72.4906
3.1456e+05,-66.9219
3.1508e+05,-72.4906
3.1560e+05,-78.0594
3.1613e+05,-72.4906
3.1665e+05,-66.9219
3.1717e+05,-72.4906
3.1769e+05,-78.0594
3.1821e+05,-73.5469
3.1873e+05,-69.0312
3.1925e+05,-69.0312
3.1977e+05,-69.0312
3.2029e+05,-72.0406
3.2081e+05,-75.05
3.2133e+05,-72.0406
3.2185e+05,-69.0312
3.2238e+05,-70.5375
3.2290e+05,-72.0406
3.2342e+05,-70.5375
3.2394e+05,-69.0312
3.2446e+05,-67.9781
3.2498e+05,-66.9219
3.2550e+05,-72.4906
3.2602e+05,-78.0594
3.2654e+05,-72.4906
3.2706e+05,-66.9219
3.2758e+05,-70.9875
3.2810e+05,-75.05
3.2862e+05,-75.05
3.2915e+05,-75.05
3.2967e+05,-73.0625
3.3019e+05,-71.0719
3.3071e+05,-73.0625
3.3123e+05,-75.05
3.3175e+05,-76.5563
3.3227e+05,-78.0594
3.3279e+05,-74.5656
3.3331e+05,-71.0719
3.3383e+05,-71.5563
3.3435e+05,-72.0406
3.3487e+05,-70.5375
3.3540e+05,-69.0312
3.3592e+05,-73.5469
3.3644e+05,-78.0594
3.3696e+05,-72.4906
3.3748e+05,-66.9219
3.3800e+05,-69.4813
3.3852e+05,-72.0406
3.3904e+05,-71.5563
3.3956e+05,-71.0719
3.4008e+05,-73.0625
3.4060e+05,-75.05
3.4112e+05,-71.5563
3.4164e+05,-68.0594
3.4217e+05,-70.05
3.4269e+05,-72.0406
3.4321e+05,-72.0406
3.4373e+05,-72.0406
3.4425e+05,-73.5469
3.4477e+05,-75.05
3.4529e+05,-73.0625
3.4581e+05,-71.0719
3.4633e+05,-71.0719
3.4685e+05,-71.0719
3.4737e+05,-71.5563
3.4789e+05,-72.0406
3.4842e+05,-70.5375
3.4894e+05,-69.0312
3.4946e+05,-70.0531
3.4998e+05,-71.0719
3.5050e+05,-73.0625
3.5102e+05,-75.05
3.5154e+05,-73.0625
3.5206e+05,-71.0719
3.5258e+05,-73.0625
3.5310e+05,-75.05
3.5362e+05,-72.0406
3.5414e+05,-69.0312
3.5466e+05,-72.0406
3.5519e+05,-75.05
3.5571e+05,-76.5563
3.5623e+05,-78.0594
3.5675e+05,-73.0594
3.5727e+05,-68.0594
3.5779e+05,-73.0594
3.5831e+05,-78.0594
3.5883e+05,-74.5656
3.5935e+05,-71.0719
3.5987e+05,-73.0625
3.6039e+05,-75.05
3.6091e+05,-73.0625
3.6144e+05,-71.0719
3.6196e+05,-71.0719
3.6248e+05,-71.0719
3.6300e+05,-71.0719
3.6352e+05,-71.0719
3.6404e+05,-71.5563
3.6456e+05,-72.0406
3.6508e+05,-73.5469
3.6560e+05,-75.05
3.6612e+05,-73.0625
3.6664e+05,-71.0719
3.6716e+05,-71.5563
3.6768e+05,-72.0406
3.6821e+05,-75.05
3.6873e+05,-78.0594
3.6925e+05,-72.4906
3.6977e+05,-66.9219
3.7029e+05,-70.9875
3.7081e+05,-75.05
3.7133e+05,-76.5563
3.7185e+05,-78.0594
3.7237e+05,-73.5469
3.7289e+05,-69.0312
3.7341e+05,-70.0531
3.7393e+05,-71.0719
3.7446e+05,-71.5563
3.7498e+05,-72.0406
3.7550e+05,-73.5469
3.7602e+05,-75.05
3.7654e+05,-73.0625
3.7706e+05,-71.0719
3.7758e+05,-71.0719
3.7810e+05,-71.0719
3.7862e+05,-68.9969
3.7914e+05,-66.9219
3.7966e+05,-70.9875
3.8018e+05,-75.05
3.8070e+05,-73.0625
3.8123e+05,-71.0719
3.8175e+05,-71.0719
3.8227e+05,-71.0719
3.8279e+05,-71.5563
3.8331e+05,-72.0406
3.8383e+05,-72.0406
3.8435e+05,-72.0406
3.8487e+05,-73.5469
3.8539e+05,-75.05
3.8591e+05,-75.05
3.8643e+05,-75.05
3.8695e+05,-73.0625
3.8748e+05,-71.0719
3.8800e+05,-71.5563
3.8852e+05,-72.0406
3.8904e+05,-70.5375
3.8956e+05,-69.0312
3.9008e+05,-73.5469
3.9060e+05,-78.0594
3.9112e+05,-73.5469
3.9164e+05,-69.0312
3.9216e+05,-72.0406
3.9268e+05,-75.05
3.9320e+05,-75.05
3.9372e+05,-75.05
3.9425e+05,-75.05
3.9477e+05,-75.05
3.9529e+05,-72.0406
3.9581e+05,-69.0312
3.9633e+05,-72.0406
3.9685e+05,-75.05
3.9737e+05,-73.0625
3.9789e+05,-71.0719
3.9841e+05,-74.5656
3.9893e+05,-78.0594
3.9945e+05,-75.05
3.9997e+05,-72.0406
4.0050e+05,-71.5563
4.0102e+05,-71.0719
4.0154e+05,-73.0625
4.0206e+05,-75.05
4.0258e+05,-73.0625
4.0310e+05,-71.0719
4.0362e+05,-73.0625
4.0414e+05,-75.05
4.0466e+05,-75.05
4.0518e+05,-75.05
4.0570e+05,-73.0625
4.0622e+05,-71.0719
4.0674e+05,-71.0719
4.0727e+05,-71.0719
4.0779e+05,-74.5656
4.0831e+05,-78.0594
4.0883e+05,-74.5656
4.0935e+05,-71.0719
4.0987e+05,-71.0719
4.1039e+05,-71.0719
4.1091e+05,-73.0625
4.1143e+05,-75.05
4.1195e+05,-70.2812
4.1247e+05,-65.5094
4.1299e+05,-71.7844
4.1352e+05,-78.0594
4.1404e+05,-74.5656
4.1456e+05,-71.0719
4.1508e+05,-71.0719
4.1560e+05,-71.0719
4.1612e+05,-74.5656
4.1664e+05,-78.0594
4.1716e+05,-74.5656
4.1768e+05,-71.0719
4.1820e+05,-73.0625
4.1872e+05,-75.05
4.1924e+05,-73.0625
4.1976e+05,-71.0719
4.2029e+05,-71.0719
4.2081e+05,-71.0719
4.2133e+05,-70.0531
4.2185e+05,-69.0312
4.2237e+05,-72.0406
4.2289e+05,-75.05
4.2341e+05,-72.0406
4.2393e+05,-69.0312
4.2445e+05,-72.0406
4.2497e+05,-75.05
4.2549e+05,-75.05
4.2601e+05,-75.05
4.2654e+05,-72.0406
4.2706e+05,-69.0312
4.2758e+05,-72.0406
4.2810e+05,-75.05
4.2862e+05,-75.05
4.2914e+05,-75.05
4.2966e+05,-73.0625
4.3018e+05,-71.0719
4.3070e+05,-70.0531
4.3122e+05,-69.0312
4.3174e+05,-72.0406
4.3226e+05,-75.05
4.3278e+05,-75.05
4.3331e+05,-75.05
4.3383e+05,-73.0625
4.3435e+05,-71.0719
4.3487e+05,-74.5656
4.3539e+05,-78.0594
4.3591e+05,-74.5656
4.3643e+05,-71.0719
4.3695e+05,-73.0625
4.3747e+05,-75.05
4.3799e+05,-73.0625
4.3851e+05,-71.0719
4.3903e+05,-74.5656
4.3956e+05,-78.0594
4.4008e+05,-74.5656
4.4060e+05,-71.0719
4.4112e+05,-71.0719
4.4164e+05,-71.0719
4.4216e+05,-73.0625
4.4268e+05,-75.05
4.4320e+05,-76.5563
4.4372e+05,-78.0594
4.4424e+05,-73.5469
4.4476e+05,-69.0312
4.4528e+05,-72.0406
4.4580e+05,-75.05
4.4633e+05,-73.5469
4.4685e+05,-72.0406
4.4737e+05,-71.5563
4.4789e+05,-71.0719
4.4841e+05,-71.0719
4.4893e+05,-71.0719
4.4945e+05,-73.0625
4.4997e+05,-75.05
4.5049e+05,-73.0625
4.5101e+05,-71.0719
4.5153e+05,-71.0719
4.5205e+05,-71.0719
4.5258e+05,-71.5563
4.5310e+05,-72.0406
4.5362e+05,-71.5563
4.5414e+05,-71.0719
4.5466e+05,-71.5563
4.5518e+05,-72.0406
4.5570e+05,-73.5469
4.5622e+05,-75.05
4.5674e+05,-73.0625
4.5726e+05,-71.0719
4.5778e+05,-74.5656
4.5830e+05,-78.0594
4.5882e+05,-76.5563
4.5935e+05,-75.05
4.5987e+05,-76.5563
4.6039e+05,-78.0594
4.6091e+05,-76.5563
4.6143e+05,-75.05
4.6195e+05,-71.5563
4.6247e+05,-68.0594
4.6299e+05,-69.5656
4.6351e+05,-71.0719
4.6403e+05,-73.0625
4.6455e+05,-75.05
4.6507e+05,-73.5469
4.6560e+05,-72.0406
4.6612e+05,-73.5469
4.6664e+05,-75.05
4.6716e+05,-73.0625
4.6768e+05,-71.0719
4.6820e+05,-74.5656
4.6872e+05,-78.0594
4.6924e+05,-76.5563
4.6976e+05,-75.05
4.7028e+05,-75.05
4.7080e+05,-75.05
4.7132e+05,-73.5469
4.7184e+05,-72.0406
4.7237e+05,-70.5375
4.7289e+05,-69.0312
4.7341e+05,-73.5469
4.7393e+05,-78.0594
4.7445e+05,-76.5563
4.7497e+05,-75.05
4.7549e+05,-73.0625
4.7601e+05,-71.0719
4.7653e+05,-73.0625
4.7705e+05,-75.05
4.7757e+05,-75.05
4.7809e+05,-75.05
4.7862e+05,-73.5469
4.7914e+05,-72.0406
4.7966e+05,-71.5563
4.8018e+05,-71.0719
4.8070e+05,-73.0625
4.8122e+05,-75.05
4.8174e+05,-73.5469
4.8226e+05,-72.0406
4.8278e+05,-73.5469
4.8330e+05,-75.05
4.8382e+05,-75.05
4.8434e+05,-75.05
4.8486e+05,-75.05
4.8539e+05,-75.05
4.8591e+05,-73.0625
4.8643e+05,-71.0719
4.8695e+05,-71.0719
4.8747e+05,-71.0719
4.8799e+05,-73.0625
4.8851e+05,-75.05
4.8903e+05,-76.5563
4.8955e+05,-78.0594
4.9007e+05,-76.5563
4.9059e+05,-75.05
4.9111e+05,-70.9875
4.9164e+05,-66.9219
4.9216e+05,-72.4906
4.9268e+05,-78.0594
4.9320e+05,-74.5656
4.9372e+05,-71.0719
4.9424e+05,-71.5563
4.9476e+05,-72.0406
4.9528e+05,-72.0406
4.9580e+05,-72.0406
4.9632e+05,-71.5563
4.9684e+05,-71.0719
4.9736e+05,-73.0625
4.9788e+05,-75.05
4.9841e+05,-75.05
4.9893e+05,-75.05
4.9945e+05,-75.05
4.9997e+05,-75.05
5.0049e+05,-75.05
5.0101e+05,-75.05
5.0153e+05,-73.0625
5.0205e+05,-71.0719
5.0257e+05,-73.0625
5.0309e+05,-75.05
5.0361e+05,-73.0625
5.0413e+05,-71.0719
5.0466e+05,-71.0719
5.0518e+05,-71.0719
5.0570e+05,-73.0625
5.0622e+05,-75.05
5.0674e+05,-76.5563
5.0726e+05,-78.0594
5.0778e+05,-78.0594
5.0830e+05,-78.0594
5.0882e+05,-74.5656
5.0934e+05,-71.0719
5.0986e+05,-74.5656
5.1038e+05,-78.0594
5.1090e+05,-74.5656
5.1143e+05,-71.0719
5.1195e+05,-73.0625
5.1247e+05,-75.05
5.1299e+05,-75.05
5.1351e+05,-75.05
5.1403e+05,-75.05
5.1455e+05,-75.05
5.1507e+05,-73.0625
5.1559e+05,-71.0719
5.1611e+05,-73.0625
5.1663e+05,-75.05
5.1715e+05,-75.05
5.1768e+05,-75.05
5.1820e+05,-75.05
5.1872e+05,-75.05
5.1924e+05,-72.0406
5.1976e+05,-69.0312
5.2028e+05,-73.5469
5.2080e+05,-78.0594
